project/upgrade/tb/pe_fp4_wave.vcd
$version Generated by VerilatedVcd $end
$timescale 1ps $end
 $scope module TOP $end
  $var wire 1 N clk $end
  $var wire 1 O rst_n $end
  $var wire 4 P a_in [3:0] $end
  $var wire 4 Q b_in [3:0] $end
  $var wire 1 R valid_in $end
  $var wire 4 S a_out [3:0] $end
  $var wire 4 T b_out [3:0] $end
  $var wire 1 U valid_out $end
  $var wire 32 V result [31:0] $end
  $var wire 1 W result_valid $end
  $scope module pe $end
   $var wire 32 Y D_HEAD [31:0] $end
   $var wire 1 N clk $end
   $var wire 1 O rst_n $end
   $var wire 4 P a_in [3:0] $end
   $var wire 4 Q b_in [3:0] $end
   $var wire 1 R valid_in $end
   $var wire 4 S a_out [3:0] $end
   $var wire 4 T b_out [3:0] $end
   $var wire 1 U valid_out $end
   $var wire 32 V result [31:0] $end
   $var wire 1 W result_valid $end
   $var wire 32 # product [31:0] $end
   $var wire 1 $ product_valid $end
   $var wire 32 % prod_buf[0] [31:0] $end
   $var wire 32 & prod_buf[1] [31:0] $end
   $var wire 32 ' prod_buf[2] [31:0] $end
   $var wire 32 ( prod_buf[3] [31:0] $end
   $var wire 32 ) prod_count [31:0] $end
   $var wire 1 * all_collected $end
   $var wire 2 + acc_state [1:0] $end
   $var wire 32 , add_idx [31:0] $end
   $var wire 32 - acc [31:0] $end
   $var wire 1 . acc_valid_in $end
   $var wire 32 / add_result [31:0] $end
   $var wire 1 0 add_valid $end
   $var wire 1 1 waiting $end
   $scope module u_add $end
    $var wire 1 N clk $end
    $var wire 1 O rst_n $end
    $var wire 32 - a [31:0] $end
    $var wire 32 2 b [31:0] $end
    $var wire 1 . valid_in $end
    $var wire 32 / result [31:0] $end
    $var wire 1 0 valid_out $end
    $var wire 1 3 sign_a $end
    $var wire 1 4 sign_b $end
    $var wire 8 5 exp_a [7:0] $end
    $var wire 8 6 exp_b [7:0] $end
    $var wire 24 7 sig_a [23:0] $end
    $var wire 24 8 sig_b [23:0] $end
    $var wire 1 9 nan_a $end
    $var wire 1 : nan_b $end
    $var wire 1 ; inf_a $end
    $var wire 1 < inf_b $end
    $var wire 1 = zero_a $end
    $var wire 1 > zero_b $end
    $var wire 1 ? sign_l $end
    $var wire 1 @ sign_s $end
    $var wire 8 A exp_l [7:0] $end
    $var wire 8 B exp_diff [7:0] $end
    $var wire 25 C sig_l_ext [24:0] $end
    $var wire 25 D sig_s_ext [24:0] $end
    $var wire 25 E sig_s_aligned [24:0] $end
    $var wire 25 F sum [24:0] $end
    $var wire 1 G result_sign $end
    $var wire 8 H result_exp [7:0] $end
    $var wire 23 I result_man [22:0] $end
    $var wire 5 J lz [4:0] $end
    $var wire 25 K norm_sig [24:0] $end
    $var wire 32 L add_result_comb [31:0] $end
   $upscope $end
   $scope module u_mul $end
    $var wire 1 N clk $end
    $var wire 1 O rst_n $end
    $var wire 4 P a [3:0] $end
    $var wire 4 Q b [3:0] $end
    $var wire 1 R valid_in $end
    $var wire 32 # result [31:0] $end
    $var wire 1 $ valid_out $end
    $var wire 32 X lut_result [31:0] $end
    $scope module u_lut $end
     $var wire 4 P a [3:0] $end
     $var wire 4 Q b [3:0] $end
     $var wire 32 X result [31:0] $end
    $upscope $end
   $upscope $end
   $scope module unnamedblk1 $end
    $var wire 32 M i [31:0] $end
   $upscope $end
  $upscope $end
 $upscope $end
$enddefinitions $end


#0
b00000000000000000000000000000000 #
0$
b00000000000000000000000000000000 %
b00000000000000000000000000000000 &
b00000000000000000000000000000000 '
b00000000000000000000000000000000 (
b00000000000000000000000000000000 )
0*
b00 +
b00000000000000000000000000000000 ,
b00000000000000000000000000000000 -
0.
b00000000000000000000000000000000 /
00
01
b00000000000000000000000000000000 2
03
04
b00000000 5
b00000000 6
b000000000000000000000000 7
b000000000000000000000000 8
09
0:
0;
0<
1=
1>
0?
0@
b00000000 A
b00000000 B
b0000000000000000000000000 C
b0000000000000000000000000 D
b0000000000000000000000000 E
b0000000000000000000000000 F
0G
b00000000 H
b00000000000000000000000 I
b00000 J
b0000000000000000000000000 K
b00000000000000000000000000000000 L
b00000000000000000000000000000000 M
0N
0O
b0000 P
b0000 Q
0R
b0000 S
b0000 T
0U
b00000000000000000000000000000000 V
0W
b00000000000000000000000000000000 X
b00000000000000000000000000000100 Y
#1
b00000000000000000000000000000100 M
1N
#2
0N
#3
1N
#4
0N
#5
1N
#6
0N
1O
#7
1N
#8
0N
b0010 P
b0010 Q
1R
b00111111100000000000000000000000 X
#9
b00111111100000000000000000000000 #
1$
1N
b0010 S
b0010 T
1U
#10
0N
b0000 P
b0000 Q
b00000000000000000000000000000000 X
#11
b00000000000000000000000000000000 #
b00111111100000000000000000000000 %
b00000000000000000000000000000001 )
b00111111100000000000000000000000 2
b01111111 6
b100000000000000000000000 8
0>
b00111111100000000000000000000000 L
1N
b0000 S
b0000 T
#12
0N
b0010 P
b0010 Q
b00111111100000000000000000000000 X
#13
b00111111100000000000000000000000 #
b00000000000000000000000000000010 )
b00111111100000000000000000000000 /
1N
b0010 S
b0010 T
#14
0N
b0000 P
b0000 Q
b00000000000000000000000000000000 X
#15
b00000000000000000000000000000000 #
b00111111100000000000000000000000 '
b00000000000000000000000000000011 )
1N
b0000 S
b0000 T
#16
0N
0R
#17
0$
b00000000000000000000000000000100 )
1*
1N
0U
#18
0N
#19
b01 +
1.
1N
#20
0N
#21
0.
10
11
1N
#22
0N
#23
b00000000000000000000000000000001 ,
b00111111100000000000000000000000 -
1.
00
01
b00000000000000000000000000000000 2
b01111111 5
b00000000 6
b100000000000000000000000 7
b000000000000000000000000 8
0=
1>
1N
b00111111100000000000000000000000 V
#24
0N
#25
0.
10
11
1N
#26
0N
#27
b00000000000000000000000000000010 ,
1.
00
01
b00111111100000000000000000000000 2
b01111111 6
b100000000000000000000000 8
0>
b01111111 A
b0100000000000000000000000 C
b0100000000000000000000000 D
b0100000000000000000000000 E
b1000000000000000000000000 F
b10000000 H
b01000000000000000000000000000000 L
1N
#28
0N
#29
0.
b01000000000000000000000000000000 /
10
11
1N
#30
0N
#31
b00000000000000000000000000000011 ,
b01000000000000000000000000000000 -
1.
00
01
b00000000000000000000000000000000 2
b10000000 5
b00000000 6
b000000000000000000000000 8
1>
b00000000 A
b0000000000000000000000000 C
b0000000000000000000000000 D
b0000000000000000000000000 E
b0000000000000000000000000 F
b00000000 H
1N
b01000000000000000000000000000000 V
#32
0N
#33
0.
10
11
1N
#34
0N
#35
b10 +
00
01
1N
1W
#36
0N
#37
1N
#38
0N
#39
1N
#40
0N
#41
1N
#42
0N
#43
1N
#44
0N
#45
1N
#46
0N
#47
1N
#48
0N
#49
1N
#50
0N
#51
1N
#52
0N
#53
1N
#54
0N
#55
1N
#56
0N
#57
1N
#58
0N
#59
1N
#60
0N
#61
1N
#62
0N
#63
1N
#64
0N
#65
1N
#66
0N
0O
#67
b00000000000000000000000000000000 %
b00000000000000000000000000000000 '
b00000000000000000000000000000000 )
0*
b00 +
b00000000000000000000000000000000 ,
b00000000000000000000000000000000 -
b00000000000000000000000000000000 /
b00000000 5
b000000000000000000000000 7
1=
b00000000000000000000000000000000 L
1N
b00000000000000000000000000000000 V
0W
#68
0N
#69
1N
#70
0N
#71
1N
#72
0N
1O
#73
1N
#74
0N
b0010 P
b0100 Q
1R
b01000000000000000000000000000000 X
#75
b01000000000000000000000000000000 #
1$
1N
b0010 S
b0100 T
1U
#76
0N
b0011 P
b0010 Q
b00111111110000000000000000000000 X
#77
b00111111110000000000000000000000 #
b01000000000000000000000000000000 %
b00000000000000000000000000000001 )
b01000000000000000000000000000000 2
b10000000 6
b100000000000000000000000 8
0>
b01000000000000000000000000000000 L
1N
b0011 S
b0010 T
#78
0N
b0100 P
b0001 Q
b00111111100000000000000000000000 X
#79
b00111111100000000000000000000000 #
b00111111110000000000000000000000 &
b00000000000000000000000000000010 )
b01000000000000000000000000000000 /
1N
b0100 S
b0001 T
#80
0N
b0001 P
b0011 Q
b00111111010000000000000000000000 X
#81
b00111111010000000000000000000000 #
b00111111100000000000000000000000 '
b00000000000000000000000000000011 )
1N
b0001 S
b0011 T
#82
0N
b0000 P
b0000 Q
0R
b00000000000000000000000000000000 X
#83
b00000000000000000000000000000000 #
0$
b00111111010000000000000000000000 (
b00000000000000000000000000000100 )
1*
1N
b0000 S
b0000 T
0U
#84
0N
#85
b01 +
1.
1N
#86
0N
#87
0.
10
11
1N
#88
0N
#89
b00000000000000000000000000000001 ,
b01000000000000000000000000000000 -
1.
00
01
b00111111110000000000000000000000 2
b10000000 5
b01111111 6
b100000000000000000000000 7
b110000000000000000000000 8
0=
b10000000 A
b00000001 B
b0100000000000000000000000 C
b0110000000000000000000000 D
b0011000000000000000000000 E
b0111000000000000000000000 F
b10000000 H
b11000000000000000000000 I
b0111000000000000000000000 K
b01000000011000000000000000000000 L
1N
b01000000000000000000000000000000 V
#90
0N
#91
0.
b01000000011000000000000000000000 /
10
11
1N
#92
0N
#93
b00000000000000000000000000000010 ,
b01000000011000000000000000000000 -
1.
00
01
b00111111100000000000000000000000 2
b111000000000000000000000 7
b100000000000000000000000 8
b0111000000000000000000000 C
b0100000000000000000000000 D
b0010000000000000000000000 E
b1001000000000000000000000 F
b10000001 H
b00100000000000000000000 I
b0000000000000000000000000 K
b01000000100100000000000000000000 L
1N
b01000000011000000000000000000000 V
#94
0N
#95
0.
b01000000100100000000000000000000 /
10
11
1N
#96
0N
#97
b00000000000000000000000000000011 ,
b01000000100100000000000000000000 -
1.
00
01
b00111111010000000000000000000000 2
b10000001 5
b01111110 6
b100100000000000000000000 7
b110000000000000000000000 8
b10000001 A
b00000011 B
b0100100000000000000000000 C
b0110000000000000000000000 D
b0000110000000000000000000 E
b0101010000000000000000000 F
b01010000000000000000000 I
b0101010000000000000000000 K
b01000000101010000000000000000000 L
1N
b01000000100100000000000000000000 V
#98
0N
#99
0.
b01000000101010000000000000000000 /
10
11
1N
#100
0N
#101
b10 +
b01000000101010000000000000000000 -
00
01
b101010000000000000000000 7
b0101010000000000000000000 C
b0110000000000000000000000 F
b10000000000000000000000 I
b0110000000000000000000000 K
b01000000110000000000000000000000 L
1N
b01000000101010000000000000000000 V
1W
#102
0N
#103
b01000000110000000000000000000000 /
1N
#104
0N
#105
1N
#106
0N
#107
1N
#108
0N
#109
1N
#110
0N
#111
1N
#112
0N
#113
1N
#114
0N
#115
1N
#116
0N
#117
1N
#118
0N
#119
1N
#120
0N
#121
1N
#122
0N
#123
1N
#124
0N
#125
1N
#126
0N
#127
1N
#128
0N
#129
1N
#130
0N
#131
1N
#132
0N
0O
#133
b00000000000000000000000000000000 %
b00000000000000000000000000000000 &
b00000000000000000000000000000000 '
b00000000000000000000000000000000 (
b00000000000000000000000000000000 )
0*
b00 +
b00000000000000000000000000000000 ,
b00000000000000000000000000000000 -
b00000000000000000000000000000000 /
b00000000000000000000000000000000 2
b00000000 5
b00000000 6
b000000000000000000000000 7
b000000000000000000000000 8
1=
1>
b00000000 A
b00000000 B
b0000000000000000000000000 C
b0000000000000000000000000 D
b0000000000000000000000000 E
b0000000000000000000000000 F
b00000000 H
b00000000000000000000000 I
b0000000000000000000000000 K
b00000000000000000000000000000000 L
1N
b00000000000000000000000000000000 V
0W
#134
0N
#135
1N
#136
0N
#137
1N
#138
0N
1O
#139
1N
#140
0N
b0010 P
b0010 Q
1R
b00111111100000000000000000000000 X
#141
b00111111100000000000000000000000 #
1$
1N
b0010 S
b0010 T
1U
#142
0N
b1010 P
b10111111100000000000000000000000 X
#143
b10111111100000000000000000000000 #
b00111111100000000000000000000000 %
b00000000000000000000000000000001 )
b00111111100000000000000000000000 2
b01111111 6
b100000000000000000000000 8
0>
b00111111100000000000000000000000 L
1N
b1010 S
#144
0N
b0010 P
b00111111100000000000000000000000 X
#145
b00111111100000000000000000000000 #
b10111111100000000000000000000000 &
b00000000000000000000000000000010 )
b00111111100000000000000000000000 /
1N
b0010 S
#146
0N
b1010 P
b10111111100000000000000000000000 X
#147
b10111111100000000000000000000000 #
b00111111100000000000000000000000 '
b00000000000000000000000000000011 )
1N
b1010 S
#148
0N
b0000 P
b0000 Q
0R
b00000000000000000000000000000000 X
#149
b00000000000000000000000000000000 #
0$
b10111111100000000000000000000000 (
b00000000000000000000000000000100 )
1*
1N
b0000 S
b0000 T
0U
#150
0N
#151
b01 +
1.
1N
#152
0N
#153
0.
10
11
1N
#154
0N
#155
b00000000000000000000000000000001 ,
b00111111100000000000000000000000 -
1.
00
01
b10111111100000000000000000000000 2
14
b01111111 5
b100000000000000000000000 7
0=
1@
b01111111 A
b0100000000000000000000000 C
b0100000000000000000000000 D
b0100000000000000000000000 E
b00000000000000000000000000000000 L
1N
b00111111100000000000000000000000 V
#156
0N
#157
0.
b00000000000000000000000000000000 /
10
11
1N
#158
0N
#159
b00000000000000000000000000000010 ,
b00000000000000000000000000000000 -
1.
00
01
b00111111100000000000000000000000 2
04
b00000000 5
b000000000000000000000000 7
1=
0@
b00000000 A
b0000000000000000000000000 C
b0000000000000000000000000 D
b0000000000000000000000000 E
b00111111100000000000000000000000 L
1N
b00000000000000000000000000000000 V
#160
0N
#161
0.
b00111111100000000000000000000000 /
10
11
1N
#162
0N
#163
b00000000000000000000000000000011 ,
b00111111100000000000000000000000 -
1.
00
01
b10111111100000000000000000000000 2
14
b01111111 5
b100000000000000000000000 7
0=
1@
b01111111 A
b0100000000000000000000000 C
b0100000000000000000000000 D
b0100000000000000000000000 E
b00000000000000000000000000000000 L
1N
b00111111100000000000000000000000 V
#164
0N
#165
0.
b00000000000000000000000000000000 /
10
11
1N
#166
0N
#167
b10 +
b00000000000000000000000000000000 -
00
01
b00000000 5
b000000000000000000000000 7
1=
0@
b00000000 A
b0000000000000000000000000 C
b0000000000000000000000000 D
b0000000000000000000000000 E
b10111111100000000000000000000000 L
1N
b00000000000000000000000000000000 V
1W
#168
0N
#169
b10111111100000000000000000000000 /
1N
