project/upgrade_archive/tb/pe_dhead64_wave.vcd
$version Generated by VerilatedVcd $end
$timescale 1ps $end
 $scope module TOP $end
  $var wire 1 J clk $end
  $var wire 1 K rst_n $end
  $var wire 4 L a_in [3:0] $end
  $var wire 4 M b_in [3:0] $end
  $var wire 1 N valid_in $end
  $var wire 4 O a_out [3:0] $end
  $var wire 4 P b_out [3:0] $end
  $var wire 1 Q valid_out $end
  $var wire 32 R result [31:0] $end
  $var wire 1 S result_valid $end
  $scope module pe $end
   $var wire 32 U D_HEAD [31:0] $end
   $var wire 1 J clk $end
   $var wire 1 K rst_n $end
   $var wire 4 L a_in [3:0] $end
   $var wire 4 M b_in [3:0] $end
   $var wire 1 N valid_in $end
   $var wire 4 O a_out [3:0] $end
   $var wire 4 P b_out [3:0] $end
   $var wire 1 Q valid_out $end
   $var wire 32 R result [31:0] $end
   $var wire 1 S result_valid $end
   $var wire 32 # product [31:0] $end
   $var wire 1 $ product_valid $end
   $var wire 32 % prod_count [31:0] $end
   $var wire 1 & all_collected $end
   $var wire 2 ' acc_state [1:0] $end
   $var wire 32 ( add_idx [31:0] $end
   $var wire 32 ) acc [31:0] $end
   $var wire 1 * acc_valid_in $end
   $var wire 32 + add_result [31:0] $end
   $var wire 1 , add_valid $end
   $var wire 1 - waiting $end
   $scope module u_add $end
    $var wire 1 J clk $end
    $var wire 1 K rst_n $end
    $var wire 32 ) a [31:0] $end
    $var wire 32 . b [31:0] $end
    $var wire 1 * valid_in $end
    $var wire 32 + result [31:0] $end
    $var wire 1 , valid_out $end
    $var wire 1 / sign_a $end
    $var wire 1 0 sign_b $end
    $var wire 8 1 exp_a [7:0] $end
    $var wire 8 2 exp_b [7:0] $end
    $var wire 24 3 sig_a [23:0] $end
    $var wire 24 4 sig_b [23:0] $end
    $var wire 1 5 nan_a $end
    $var wire 1 6 nan_b $end
    $var wire 1 7 inf_a $end
    $var wire 1 8 inf_b $end
    $var wire 1 9 zero_a $end
    $var wire 1 : zero_b $end
    $var wire 1 ; sign_l $end
    $var wire 1 < sign_s $end
    $var wire 8 = exp_l [7:0] $end
    $var wire 8 > exp_diff [7:0] $end
    $var wire 25 ? sig_l_ext [24:0] $end
    $var wire 25 @ sig_s_ext [24:0] $end
    $var wire 25 A sig_s_aligned [24:0] $end
    $var wire 25 B sum [24:0] $end
    $var wire 1 C result_sign $end
    $var wire 8 D result_exp [7:0] $end
    $var wire 23 E result_man [22:0] $end
    $var wire 5 F lz [4:0] $end
    $var wire 25 G norm_sig [24:0] $end
    $var wire 32 H add_result_comb [31:0] $end
   $upscope $end
   $scope module u_mul $end
    $var wire 1 J clk $end
    $var wire 1 K rst_n $end
    $var wire 4 L a [3:0] $end
    $var wire 4 M b [3:0] $end
    $var wire 1 N valid_in $end
    $var wire 32 # result [31:0] $end
    $var wire 1 $ valid_out $end
    $var wire 32 T lut_result [31:0] $end
    $scope module u_lut $end
     $var wire 4 L a [3:0] $end
     $var wire 4 M b [3:0] $end
     $var wire 32 T result [31:0] $end
    $upscope $end
   $upscope $end
   $scope module unnamedblk1 $end
    $var wire 32 I i [31:0] $end
   $upscope $end
  $upscope $end
 $upscope $end
$enddefinitions $end


#0
b00000000000000000000000000000000 #
0$
b00000000000000000000000000000000 %
0&
b00 '
b00000000000000000000000000000000 (
b00000000000000000000000000000000 )
0*
b00000000000000000000000000000000 +
0,
0-
b00000000000000000000000000000000 .
0/
00
b00000000 1
b00000000 2
b000000000000000000000000 3
b000000000000000000000000 4
05
06
07
08
19
1:
0;
0<
b00000000 =
b00000000 >
b0000000000000000000000000 ?
b0000000000000000000000000 @
b0000000000000000000000000 A
b0000000000000000000000000 B
0C
b00000000 D
b00000000000000000000000 E
b00000 F
b0000000000000000000000000 G
b00000000000000000000000000000000 H
b00000000000000000000000000000000 I
0J
0K
b0000 L
b0000 M
0N
b0000 O
b0000 P
0Q
b00000000000000000000000000000000 R
0S
b00000000000000000000000000000000 T
b00000000000000000000000001000000 U
#1
b00000000000000000000000001000000 I
1J
#2
0J
#3
1J
#4
0J
#5
1J
#6
0J
#7
1J
#8
0J
1K
#9
1J
#10
0J
b0010 L
b0010 M
1N
b00111111100000000000000000000000 T
#11
b00111111100000000000000000000000 #
1$
1J
b0010 O
b0010 P
1Q
#12
0J
#13
b00000000000000000000000000000001 %
b00111111100000000000000000000000 .
b01111111 2
b100000000000000000000000 4
0:
b00111111100000000000000000000000 H
1J
#14
0J
#15
b00000000000000000000000000000010 %
b00111111100000000000000000000000 +
1J
#16
0J
#17
b00000000000000000000000000000011 %
1J
#18
0J
#19
b00000000000000000000000000000100 %
1J
#20
0J
#21
b00000000000000000000000000000101 %
1J
#22
0J
#23
b00000000000000000000000000000110 %
1J
#24
0J
#25
b00000000000000000000000000000111 %
1J
#26
0J
#27
b00000000000000000000000000001000 %
1J
#28
0J
#29
b00000000000000000000000000001001 %
1J
#30
0J
#31
b00000000000000000000000000001010 %
1J
#32
0J
#33
b00000000000000000000000000001011 %
1J
#34
0J
#35
b00000000000000000000000000001100 %
1J
#36
0J
#37
b00000000000000000000000000001101 %
1J
#38
0J
#39
b00000000000000000000000000001110 %
1J
#40
0J
#41
b00000000000000000000000000001111 %
1J
#42
0J
#43
b00000000000000000000000000010000 %
1J
#44
0J
#45
b00000000000000000000000000010001 %
1J
#46
0J
#47
b00000000000000000000000000010010 %
1J
#48
0J
#49
b00000000000000000000000000010011 %
1J
#50
0J
#51
b00000000000000000000000000010100 %
1J
#52
0J
#53
b00000000000000000000000000010101 %
1J
#54
0J
#55
b00000000000000000000000000010110 %
1J
#56
0J
#57
b00000000000000000000000000010111 %
1J
#58
0J
#59
b00000000000000000000000000011000 %
1J
#60
0J
#61
b00000000000000000000000000011001 %
1J
#62
0J
#63
b00000000000000000000000000011010 %
1J
#64
0J
#65
b00000000000000000000000000011011 %
1J
#66
0J
#67
b00000000000000000000000000011100 %
1J
#68
0J
#69
b00000000000000000000000000011101 %
1J
#70
0J
#71
b00000000000000000000000000011110 %
1J
#72
0J
#73
b00000000000000000000000000011111 %
1J
#74
0J
#75
b00000000000000000000000000100000 %
1J
#76
0J
#77
b00000000000000000000000000100001 %
1J
#78
0J
#79
b00000000000000000000000000100010 %
1J
#80
0J
#81
b00000000000000000000000000100011 %
1J
#82
0J
#83
b00000000000000000000000000100100 %
1J
#84
0J
#85
b00000000000000000000000000100101 %
1J
#86
0J
#87
b00000000000000000000000000100110 %
1J
#88
0J
#89
b00000000000000000000000000100111 %
1J
#90
0J
#91
b00000000000000000000000000101000 %
1J
#92
0J
#93
b00000000000000000000000000101001 %
1J
#94
0J
#95
b00000000000000000000000000101010 %
1J
#96
0J
#97
b00000000000000000000000000101011 %
1J
#98
0J
#99
b00000000000000000000000000101100 %
1J
#100
0J
#101
b00000000000000000000000000101101 %
1J
#102
0J
#103
b00000000000000000000000000101110 %
1J
#104
0J
#105
b00000000000000000000000000101111 %
1J
#106
0J
#107
b00000000000000000000000000110000 %
1J
#108
0J
#109
b00000000000000000000000000110001 %
1J
#110
0J
#111
b00000000000000000000000000110010 %
1J
#112
0J
#113
b00000000000000000000000000110011 %
1J
#114
0J
#115
b00000000000000000000000000110100 %
1J
#116
0J
#117
b00000000000000000000000000110101 %
1J
#118
0J
#119
b00000000000000000000000000110110 %
1J
#120
0J
#121
b00000000000000000000000000110111 %
1J
#122
0J
#123
b00000000000000000000000000111000 %
1J
#124
0J
#125
b00000000000000000000000000111001 %
1J
#126
0J
#127
b00000000000000000000000000111010 %
1J
#128
0J
#129
b00000000000000000000000000111011 %
1J
#130
0J
#131
b00000000000000000000000000111100 %
1J
#132
0J
#133
b00000000000000000000000000111101 %
1J
#134
0J
#135
b00000000000000000000000000111110 %
1J
#136
0J
#137
b00000000000000000000000000111111 %
1J
#138
0J
b0000 L
b0000 M
0N
b00000000000000000000000000000000 T
#139
b00000000000000000000000000000000 #
0$
b00000000000000000000000001000000 %
1&
1J
b0000 O
b0000 P
0Q
#140
0J
#141
b01 '
1*
1J
#142
0J
#143
0*
1,
1-
1J
#144
0J
#145
b00000000000000000000000000000001 (
b00111111100000000000000000000000 )
1*
0,
0-
b01111111 1
b100000000000000000000000 3
09
b01111111 =
b0100000000000000000000000 ?
b0100000000000000000000000 @
b0100000000000000000000000 A
b1000000000000000000000000 B
b10000000 D
b01000000000000000000000000000000 H
1J
b00111111100000000000000000000000 R
#146
0J
#147
0*
b01000000000000000000000000000000 +
1,
1-
1J
#148
0J
#149
b00000000000000000000000000000010 (
b01000000000000000000000000000000 )
1*
0,
0-
b10000000 1
b10000000 =
b00000001 >
b0010000000000000000000000 A
b0110000000000000000000000 B
b10000000000000000000000 E
b0110000000000000000000000 G
b01000000010000000000000000000000 H
1J
b01000000000000000000000000000000 R
#150
0J
#151
0*
b01000000010000000000000000000000 +
1,
1-
1J
#152
0J
#153
b00000000000000000000000000000011 (
b01000000010000000000000000000000 )
1*
0,
0-
b110000000000000000000000 3
b0110000000000000000000000 ?
b1000000000000000000000000 B
b10000001 D
b00000000000000000000000 E
b0000000000000000000000000 G
b01000000100000000000000000000000 H
1J
b01000000010000000000000000000000 R
#154
0J
#155
0*
b01000000100000000000000000000000 +
1,
1-
1J
#156
0J
#157
b00000000000000000000000000000100 (
b01000000100000000000000000000000 )
1*
0,
0-
b10000001 1
b100000000000000000000000 3
b10000001 =
b00000010 >
b0100000000000000000000000 ?
b0001000000000000000000000 A
b0101000000000000000000000 B
b01000000000000000000000 E
b0101000000000000000000000 G
b01000000101000000000000000000000 H
1J
b01000000100000000000000000000000 R
#158
0J
#159
0*
b01000000101000000000000000000000 +
1,
1-
1J
#160
0J
#161
b00000000000000000000000000000101 (
b01000000101000000000000000000000 )
1*
0,
0-
b101000000000000000000000 3
b0101000000000000000000000 ?
b0110000000000000000000000 B
b10000000000000000000000 E
b0110000000000000000000000 G
b01000000110000000000000000000000 H
1J
b01000000101000000000000000000000 R
#162
0J
#163
0*
b01000000110000000000000000000000 +
1,
1-
1J
#164
0J
#165
b00000000000000000000000000000110 (
b01000000110000000000000000000000 )
1*
0,
0-
b110000000000000000000000 3
b0110000000000000000000000 ?
b0111000000000000000000000 B
b11000000000000000000000 E
b0111000000000000000000000 G
b01000000111000000000000000000000 H
1J
b01000000110000000000000000000000 R
#166
0J
#167
0*
b01000000111000000000000000000000 +
1,
1-
1J
#168
0J
#169
b00000000000000000000000000000111 (
b01000000111000000000000000000000 )
1*
0,
0-
b111000000000000000000000 3
b0111000000000000000000000 ?
b1000000000000000000000000 B
b10000010 D
b00000000000000000000000 E
b0000000000000000000000000 G
b01000001000000000000000000000000 H
1J
b01000000111000000000000000000000 R
#170
0J
#171
0*
b01000001000000000000000000000000 +
1,
1-
1J
#172
0J
#173
b00000000000000000000000000001000 (
b01000001000000000000000000000000 )
1*
0,
0-
b10000010 1
b100000000000000000000000 3
b10000010 =
b00000011 >
b0100000000000000000000000 ?
b0000100000000000000000000 A
b0100100000000000000000000 B
b00100000000000000000000 E
b0100100000000000000000000 G
b01000001000100000000000000000000 H
1J
b01000001000000000000000000000000 R
#174
0J
#175
0*
b01000001000100000000000000000000 +
1,
1-
1J
#176
0J
#177
b00000000000000000000000000001001 (
b01000001000100000000000000000000 )
1*
0,
0-
b100100000000000000000000 3
b0100100000000000000000000 ?
b0101000000000000000000000 B
b01000000000000000000000 E
b0101000000000000000000000 G
b01000001001000000000000000000000 H
1J
b01000001000100000000000000000000 R
#178
0J
#179
0*
b01000001001000000000000000000000 +
1,
1-
1J
#180
0J
#181
b00000000000000000000000000001010 (
b01000001001000000000000000000000 )
1*
0,
0-
b101000000000000000000000 3
b0101000000000000000000000 ?
b0101100000000000000000000 B
b01100000000000000000000 E
b0101100000000000000000000 G
b01000001001100000000000000000000 H
1J
b01000001001000000000000000000000 R
#182
0J
#183
0*
b01000001001100000000000000000000 +
1,
1-
1J
#184
0J
#185
b00000000000000000000000000001011 (
b01000001001100000000000000000000 )
1*
0,
0-
b101100000000000000000000 3
b0101100000000000000000000 ?
b0110000000000000000000000 B
b10000000000000000000000 E
b0110000000000000000000000 G
b01000001010000000000000000000000 H
1J
b01000001001100000000000000000000 R
#186
0J
#187
0*
b01000001010000000000000000000000 +
1,
1-
1J
#188
0J
#189
b00000000000000000000000000001100 (
b01000001010000000000000000000000 )
1*
0,
0-
b110000000000000000000000 3
b0110000000000000000000000 ?
b0110100000000000000000000 B
b10100000000000000000000 E
b0110100000000000000000000 G
b01000001010100000000000000000000 H
1J
b01000001010000000000000000000000 R
#190
0J
#191
0*
b01000001010100000000000000000000 +
1,
1-
1J
#192
0J
#193
b00000000000000000000000000001101 (
b01000001010100000000000000000000 )
1*
0,
0-
b110100000000000000000000 3
b0110100000000000000000000 ?
b0111000000000000000000000 B
b11000000000000000000000 E
b0111000000000000000000000 G
b01000001011000000000000000000000 H
1J
b01000001010100000000000000000000 R
#194
0J
#195
0*
b01000001011000000000000000000000 +
1,
1-
1J
#196
0J
#197
b00000000000000000000000000001110 (
b01000001011000000000000000000000 )
1*
0,
0-
b111000000000000000000000 3
b0111000000000000000000000 ?
b0111100000000000000000000 B
b11100000000000000000000 E
b0111100000000000000000000 G
b01000001011100000000000000000000 H
1J
b01000001011000000000000000000000 R
#198
0J
#199
0*
b01000001011100000000000000000000 +
1,
1-
1J
#200
0J
#201
b00000000000000000000000000001111 (
b01000001011100000000000000000000 )
1*
0,
0-
b111100000000000000000000 3
b0111100000000000000000000 ?
b1000000000000000000000000 B
b10000011 D
b00000000000000000000000 E
b0000000000000000000000000 G
b01000001100000000000000000000000 H
1J
b01000001011100000000000000000000 R
#202
0J
#203
0*
b01000001100000000000000000000000 +
1,
1-
1J
#204
0J
#205
b00000000000000000000000000010000 (
b01000001100000000000000000000000 )
1*
0,
0-
b10000011 1
b100000000000000000000000 3
b10000011 =
b00000100 >
b0100000000000000000000000 ?
b0000010000000000000000000 A
b0100010000000000000000000 B
b00010000000000000000000 E
b0100010000000000000000000 G
b01000001100010000000000000000000 H
1J
b01000001100000000000000000000000 R
#206
0J
#207
0*
b01000001100010000000000000000000 +
1,
1-
1J
#208
0J
#209
b00000000000000000000000000010001 (
b01000001100010000000000000000000 )
1*
0,
0-
b100010000000000000000000 3
b0100010000000000000000000 ?
b0100100000000000000000000 B
b00100000000000000000000 E
b0100100000000000000000000 G
b01000001100100000000000000000000 H
1J
b01000001100010000000000000000000 R
#210
0J
#211
0*
b01000001100100000000000000000000 +
1,
1-
1J
#212
0J
#213
b00000000000000000000000000010010 (
b01000001100100000000000000000000 )
1*
0,
0-
b100100000000000000000000 3
b0100100000000000000000000 ?
b0100110000000000000000000 B
b00110000000000000000000 E
b0100110000000000000000000 G
b01000001100110000000000000000000 H
1J
b01000001100100000000000000000000 R
#214
0J
#215
0*
b01000001100110000000000000000000 +
1,
1-
1J
#216
0J
#217
b00000000000000000000000000010011 (
b01000001100110000000000000000000 )
1*
0,
0-
b100110000000000000000000 3
b0100110000000000000000000 ?
b0101000000000000000000000 B
b01000000000000000000000 E
b0101000000000000000000000 G
b01000001101000000000000000000000 H
1J
b01000001100110000000000000000000 R
#218
0J
#219
0*
b01000001101000000000000000000000 +
1,
1-
1J
#220
0J
#221
b00000000000000000000000000010100 (
b01000001101000000000000000000000 )
1*
0,
0-
b101000000000000000000000 3
b0101000000000000000000000 ?
b0101010000000000000000000 B
b01010000000000000000000 E
b0101010000000000000000000 G
b01000001101010000000000000000000 H
1J
b01000001101000000000000000000000 R
#222
0J
#223
0*
b01000001101010000000000000000000 +
1,
1-
1J
#224
0J
#225
b00000000000000000000000000010101 (
b01000001101010000000000000000000 )
1*
0,
0-
b101010000000000000000000 3
b0101010000000000000000000 ?
b0101100000000000000000000 B
b01100000000000000000000 E
b0101100000000000000000000 G
b01000001101100000000000000000000 H
1J
b01000001101010000000000000000000 R
#226
0J
#227
0*
b01000001101100000000000000000000 +
1,
1-
1J
#228
0J
#229
b00000000000000000000000000010110 (
b01000001101100000000000000000000 )
1*
0,
0-
b101100000000000000000000 3
b0101100000000000000000000 ?
b0101110000000000000000000 B
b01110000000000000000000 E
b0101110000000000000000000 G
b01000001101110000000000000000000 H
1J
b01000001101100000000000000000000 R
#230
0J
#231
0*
b01000001101110000000000000000000 +
1,
1-
1J
#232
0J
#233
b00000000000000000000000000010111 (
b01000001101110000000000000000000 )
1*
0,
0-
b101110000000000000000000 3
b0101110000000000000000000 ?
b0110000000000000000000000 B
b10000000000000000000000 E
b0110000000000000000000000 G
b01000001110000000000000000000000 H
1J
b01000001101110000000000000000000 R
#234
0J
#235
0*
b01000001110000000000000000000000 +
1,
1-
1J
#236
0J
#237
b00000000000000000000000000011000 (
b01000001110000000000000000000000 )
1*
0,
0-
b110000000000000000000000 3
b0110000000000000000000000 ?
b0110010000000000000000000 B
b10010000000000000000000 E
b0110010000000000000000000 G
b01000001110010000000000000000000 H
1J
b01000001110000000000000000000000 R
#238
0J
#239
0*
b01000001110010000000000000000000 +
1,
1-
1J
#240
0J
#241
b00000000000000000000000000011001 (
b01000001110010000000000000000000 )
1*
0,
0-
b110010000000000000000000 3
b0110010000000000000000000 ?
b0110100000000000000000000 B
b10100000000000000000000 E
b0110100000000000000000000 G
b01000001110100000000000000000000 H
1J
b01000001110010000000000000000000 R
#242
0J
#243
0*
b01000001110100000000000000000000 +
1,
1-
1J
#244
0J
#245
b00000000000000000000000000011010 (
b01000001110100000000000000000000 )
1*
0,
0-
b110100000000000000000000 3
b0110100000000000000000000 ?
b0110110000000000000000000 B
b10110000000000000000000 E
b0110110000000000000000000 G
b01000001110110000000000000000000 H
1J
b01000001110100000000000000000000 R
#246
0J
#247
0*
b01000001110110000000000000000000 +
1,
1-
1J
#248
0J
#249
b00000000000000000000000000011011 (
b01000001110110000000000000000000 )
1*
0,
0-
b110110000000000000000000 3
b0110110000000000000000000 ?
b0111000000000000000000000 B
b11000000000000000000000 E
b0111000000000000000000000 G
b01000001111000000000000000000000 H
1J
b01000001110110000000000000000000 R
#250
0J
#251
0*
b01000001111000000000000000000000 +
1,
1-
1J
#252
0J
#253
b00000000000000000000000000011100 (
b01000001111000000000000000000000 )
1*
0,
0-
b111000000000000000000000 3
b0111000000000000000000000 ?
b0111010000000000000000000 B
b11010000000000000000000 E
b0111010000000000000000000 G
b01000001111010000000000000000000 H
1J
b01000001111000000000000000000000 R
#254
0J
#255
0*
b01000001111010000000000000000000 +
1,
1-
1J
#256
0J
#257
b00000000000000000000000000011101 (
b01000001111010000000000000000000 )
1*
0,
0-
b111010000000000000000000 3
b0111010000000000000000000 ?
b0111100000000000000000000 B
b11100000000000000000000 E
b0111100000000000000000000 G
b01000001111100000000000000000000 H
1J
b01000001111010000000000000000000 R
#258
0J
#259
0*
b01000001111100000000000000000000 +
1,
1-
1J
#260
0J
#261
b00000000000000000000000000011110 (
b01000001111100000000000000000000 )
1*
0,
0-
b111100000000000000000000 3
b0111100000000000000000000 ?
b0111110000000000000000000 B
b11110000000000000000000 E
b0111110000000000000000000 G
b01000001111110000000000000000000 H
1J
b01000001111100000000000000000000 R
#262
0J
#263
0*
b01000001111110000000000000000000 +
1,
1-
1J
#264
0J
#265
b00000000000000000000000000011111 (
b01000001111110000000000000000000 )
1*
0,
0-
b111110000000000000000000 3
b0111110000000000000000000 ?
b1000000000000000000000000 B
b10000100 D
b00000000000000000000000 E
b0000000000000000000000000 G
b01000010000000000000000000000000 H
1J
b01000001111110000000000000000000 R
#266
0J
#267
0*
b01000010000000000000000000000000 +
1,
1-
1J
#268
0J
#269
b00000000000000000000000000100000 (
b01000010000000000000000000000000 )
1*
0,
0-
b10000100 1
b100000000000000000000000 3
b10000100 =
b00000101 >
b0100000000000000000000000 ?
b0000001000000000000000000 A
b0100001000000000000000000 B
b00001000000000000000000 E
b0100001000000000000000000 G
b01000010000001000000000000000000 H
1J
b01000010000000000000000000000000 R
#270
0J
#271
0*
b01000010000001000000000000000000 +
1,
1-
1J
#272
0J
#273
b00000000000000000000000000100001 (
b01000010000001000000000000000000 )
1*
0,
0-
b100001000000000000000000 3
b0100001000000000000000000 ?
b0100010000000000000000000 B
b00010000000000000000000 E
b0100010000000000000000000 G
b01000010000010000000000000000000 H
1J
b01000010000001000000000000000000 R
#274
0J
#275
0*
b01000010000010000000000000000000 +
1,
1-
1J
#276
0J
#277
b00000000000000000000000000100010 (
b01000010000010000000000000000000 )
1*
0,
0-
b100010000000000000000000 3
b0100010000000000000000000 ?
b0100011000000000000000000 B
b00011000000000000000000 E
b0100011000000000000000000 G
b01000010000011000000000000000000 H
1J
b01000010000010000000000000000000 R
#278
0J
#279
0*
b01000010000011000000000000000000 +
1,
1-
1J
#280
0J
#281
b00000000000000000000000000100011 (
b01000010000011000000000000000000 )
1*
0,
0-
b100011000000000000000000 3
b0100011000000000000000000 ?
b0100100000000000000000000 B
b00100000000000000000000 E
b0100100000000000000000000 G
b01000010000100000000000000000000 H
1J
b01000010000011000000000000000000 R
#282
0J
#283
0*
b01000010000100000000000000000000 +
1,
1-
1J
#284
0J
#285
b00000000000000000000000000100100 (
b01000010000100000000000000000000 )
1*
0,
0-
b100100000000000000000000 3
b0100100000000000000000000 ?
b0100101000000000000000000 B
b00101000000000000000000 E
b0100101000000000000000000 G
b01000010000101000000000000000000 H
1J
b01000010000100000000000000000000 R
#286
0J
#287
0*
b01000010000101000000000000000000 +
1,
1-
1J
#288
0J
#289
b00000000000000000000000000100101 (
b01000010000101000000000000000000 )
1*
0,
0-
b100101000000000000000000 3
b0100101000000000000000000 ?
b0100110000000000000000000 B
b00110000000000000000000 E
b0100110000000000000000000 G
b01000010000110000000000000000000 H
1J
b01000010000101000000000000000000 R
#290
0J
#291
0*
b01000010000110000000000000000000 +
1,
1-
1J
#292
0J
#293
b00000000000000000000000000100110 (
b01000010000110000000000000000000 )
1*
0,
0-
b100110000000000000000000 3
b0100110000000000000000000 ?
b0100111000000000000000000 B
b00111000000000000000000 E
b0100111000000000000000000 G
b01000010000111000000000000000000 H
1J
b01000010000110000000000000000000 R
#294
0J
#295
0*
b01000010000111000000000000000000 +
1,
1-
1J
#296
0J
#297
b00000000000000000000000000100111 (
b01000010000111000000000000000000 )
1*
0,
0-
b100111000000000000000000 3
b0100111000000000000000000 ?
b0101000000000000000000000 B
b01000000000000000000000 E
b0101000000000000000000000 G
b01000010001000000000000000000000 H
1J
b01000010000111000000000000000000 R
#298
0J
#299
0*
b01000010001000000000000000000000 +
1,
1-
1J
#300
0J
#301
b00000000000000000000000000101000 (
b01000010001000000000000000000000 )
1*
0,
0-
b101000000000000000000000 3
b0101000000000000000000000 ?
b0101001000000000000000000 B
b01001000000000000000000 E
b0101001000000000000000000 G
b01000010001001000000000000000000 H
1J
b01000010001000000000000000000000 R
#302
0J
#303
0*
b01000010001001000000000000000000 +
1,
1-
1J
#304
0J
#305
b00000000000000000000000000101001 (
b01000010001001000000000000000000 )
1*
0,
0-
b101001000000000000000000 3
b0101001000000000000000000 ?
b0101010000000000000000000 B
b01010000000000000000000 E
b0101010000000000000000000 G
b01000010001010000000000000000000 H
1J
b01000010001001000000000000000000 R
#306
0J
#307
0*
b01000010001010000000000000000000 +
1,
1-
1J
#308
0J
#309
b00000000000000000000000000101010 (
b01000010001010000000000000000000 )
1*
0,
0-
b101010000000000000000000 3
b0101010000000000000000000 ?
b0101011000000000000000000 B
b01011000000000000000000 E
b0101011000000000000000000 G
b01000010001011000000000000000000 H
1J
b01000010001010000000000000000000 R
#310
0J
#311
0*
b01000010001011000000000000000000 +
1,
1-
1J
#312
0J
#313
b00000000000000000000000000101011 (
b01000010001011000000000000000000 )
1*
0,
0-
b101011000000000000000000 3
b0101011000000000000000000 ?
b0101100000000000000000000 B
b01100000000000000000000 E
b0101100000000000000000000 G
b01000010001100000000000000000000 H
1J
b01000010001011000000000000000000 R
#314
0J
#315
0*
b01000010001100000000000000000000 +
1,
1-
1J
#316
0J
#317
b00000000000000000000000000101100 (
b01000010001100000000000000000000 )
1*
0,
0-
b101100000000000000000000 3
b0101100000000000000000000 ?
b0101101000000000000000000 B
b01101000000000000000000 E
b0101101000000000000000000 G
b01000010001101000000000000000000 H
1J
b01000010001100000000000000000000 R
#318
0J
#319
0*
b01000010001101000000000000000000 +
1,
1-
1J
#320
0J
#321
b00000000000000000000000000101101 (
b01000010001101000000000000000000 )
1*
0,
0-
b101101000000000000000000 3
b0101101000000000000000000 ?
b0101110000000000000000000 B
b01110000000000000000000 E
b0101110000000000000000000 G
b01000010001110000000000000000000 H
1J
b01000010001101000000000000000000 R
#322
0J
#323
0*
b01000010001110000000000000000000 +
1,
1-
1J
#324
0J
#325
b00000000000000000000000000101110 (
b01000010001110000000000000000000 )
1*
0,
0-
b101110000000000000000000 3
b0101110000000000000000000 ?
b0101111000000000000000000 B
b01111000000000000000000 E
b0101111000000000000000000 G
b01000010001111000000000000000000 H
1J
b01000010001110000000000000000000 R
#326
0J
#327
0*
b01000010001111000000000000000000 +
1,
1-
1J
#328
0J
#329
b00000000000000000000000000101111 (
b01000010001111000000000000000000 )
1*
0,
0-
b101111000000000000000000 3
b0101111000000000000000000 ?
b0110000000000000000000000 B
b10000000000000000000000 E
b0110000000000000000000000 G
b01000010010000000000000000000000 H
1J
b01000010001111000000000000000000 R
#330
0J
#331
0*
b01000010010000000000000000000000 +
1,
1-
1J
#332
0J
#333
b00000000000000000000000000110000 (
b01000010010000000000000000000000 )
1*
0,
0-
b110000000000000000000000 3
b0110000000000000000000000 ?
b0110001000000000000000000 B
b10001000000000000000000 E
b0110001000000000000000000 G
b01000010010001000000000000000000 H
1J
b01000010010000000000000000000000 R
#334
0J
#335
0*
b01000010010001000000000000000000 +
1,
1-
1J
#336
0J
#337
b00000000000000000000000000110001 (
b01000010010001000000000000000000 )
1*
0,
0-
b110001000000000000000000 3
b0110001000000000000000000 ?
b0110010000000000000000000 B
b10010000000000000000000 E
b0110010000000000000000000 G
b01000010010010000000000000000000 H
1J
b01000010010001000000000000000000 R
#338
0J
#339
0*
b01000010010010000000000000000000 +
1,
1-
1J
#340
0J
#341
b00000000000000000000000000110010 (
b01000010010010000000000000000000 )
1*
0,
0-
b110010000000000000000000 3
b0110010000000000000000000 ?
b0110011000000000000000000 B
b10011000000000000000000 E
b0110011000000000000000000 G
b01000010010011000000000000000000 H
1J
b01000010010010000000000000000000 R
#342
0J
#343
0*
b01000010010011000000000000000000 +
1,
1-
1J
#344
0J
#345
b00000000000000000000000000110011 (
b01000010010011000000000000000000 )
1*
0,
0-
b110011000000000000000000 3
b0110011000000000000000000 ?
b0110100000000000000000000 B
b10100000000000000000000 E
b0110100000000000000000000 G
b01000010010100000000000000000000 H
1J
b01000010010011000000000000000000 R
#346
0J
#347
0*
b01000010010100000000000000000000 +
1,
1-
1J
#348
0J
#349
b00000000000000000000000000110100 (
b01000010010100000000000000000000 )
1*
0,
0-
b110100000000000000000000 3
b0110100000000000000000000 ?
b0110101000000000000000000 B
b10101000000000000000000 E
b0110101000000000000000000 G
b01000010010101000000000000000000 H
1J
b01000010010100000000000000000000 R
#350
0J
#351
0*
b01000010010101000000000000000000 +
1,
1-
1J
#352
0J
#353
b00000000000000000000000000110101 (
b01000010010101000000000000000000 )
1*
0,
0-
b110101000000000000000000 3
b0110101000000000000000000 ?
b0110110000000000000000000 B
b10110000000000000000000 E
b0110110000000000000000000 G
b01000010010110000000000000000000 H
1J
b01000010010101000000000000000000 R
#354
0J
#355
0*
b01000010010110000000000000000000 +
1,
1-
1J
#356
0J
#357
b00000000000000000000000000110110 (
b01000010010110000000000000000000 )
1*
0,
0-
b110110000000000000000000 3
b0110110000000000000000000 ?
b0110111000000000000000000 B
b10111000000000000000000 E
b0110111000000000000000000 G
b01000010010111000000000000000000 H
1J
b01000010010110000000000000000000 R
#358
0J
#359
0*
b01000010010111000000000000000000 +
1,
1-
1J
#360
0J
#361
b00000000000000000000000000110111 (
b01000010010111000000000000000000 )
1*
0,
0-
b110111000000000000000000 3
b0110111000000000000000000 ?
b0111000000000000000000000 B
b11000000000000000000000 E
b0111000000000000000000000 G
b01000010011000000000000000000000 H
1J
b01000010010111000000000000000000 R
#362
0J
#363
0*
b01000010011000000000000000000000 +
1,
1-
1J
#364
0J
#365
b00000000000000000000000000111000 (
b01000010011000000000000000000000 )
1*
0,
0-
b111000000000000000000000 3
b0111000000000000000000000 ?
b0111001000000000000000000 B
b11001000000000000000000 E
b0111001000000000000000000 G
b01000010011001000000000000000000 H
1J
b01000010011000000000000000000000 R
#366
0J
#367
0*
b01000010011001000000000000000000 +
1,
1-
1J
#368
0J
#369
b00000000000000000000000000111001 (
b01000010011001000000000000000000 )
1*
0,
0-
b111001000000000000000000 3
b0111001000000000000000000 ?
b0111010000000000000000000 B
b11010000000000000000000 E
b0111010000000000000000000 G
b01000010011010000000000000000000 H
1J
b01000010011001000000000000000000 R
#370
0J
#371
0*
b01000010011010000000000000000000 +
1,
1-
1J
#372
0J
#373
b00000000000000000000000000111010 (
b01000010011010000000000000000000 )
1*
0,
0-
b111010000000000000000000 3
b0111010000000000000000000 ?
b0111011000000000000000000 B
b11011000000000000000000 E
b0111011000000000000000000 G
b01000010011011000000000000000000 H
1J
b01000010011010000000000000000000 R
#374
0J
#375
0*
b01000010011011000000000000000000 +
1,
1-
1J
#376
0J
#377
b00000000000000000000000000111011 (
b01000010011011000000000000000000 )
1*
0,
0-
b111011000000000000000000 3
b0111011000000000000000000 ?
b0111100000000000000000000 B
b11100000000000000000000 E
b0111100000000000000000000 G
b01000010011100000000000000000000 H
1J
b01000010011011000000000000000000 R
#378
0J
#379
0*
b01000010011100000000000000000000 +
1,
1-
1J
#380
0J
