project/upgrade_archive/tb/pe_random_wave.vcd
$version Generated by VerilatedVcd $end
$timescale 1ps $end
 $scope module TOP $end
  $var wire 1 N clk $end
  $var wire 1 O rst_n $end
  $var wire 4 P a_in [3:0] $end
  $var wire 4 Q b_in [3:0] $end
  $var wire 1 R valid_in $end
  $var wire 4 S a_out [3:0] $end
  $var wire 4 T b_out [3:0] $end
  $var wire 1 U valid_out $end
  $var wire 32 V result [31:0] $end
  $var wire 1 W result_valid $end
  $scope module pe $end
   $var wire 32 Y D_HEAD [31:0] $end
   $var wire 1 N clk $end
   $var wire 1 O rst_n $end
   $var wire 4 P a_in [3:0] $end
   $var wire 4 Q b_in [3:0] $end
   $var wire 1 R valid_in $end
   $var wire 4 S a_out [3:0] $end
   $var wire 4 T b_out [3:0] $end
   $var wire 1 U valid_out $end
   $var wire 32 V result [31:0] $end
   $var wire 1 W result_valid $end
   $var wire 32 # product [31:0] $end
   $var wire 1 $ product_valid $end
   $var wire 32 % prod_buf[0] [31:0] $end
   $var wire 32 & prod_buf[1] [31:0] $end
   $var wire 32 ' prod_buf[2] [31:0] $end
   $var wire 32 ( prod_buf[3] [31:0] $end
   $var wire 32 ) prod_count [31:0] $end
   $var wire 1 * all_collected $end
   $var wire 2 + acc_state [1:0] $end
   $var wire 32 , add_idx [31:0] $end
   $var wire 32 - acc [31:0] $end
   $var wire 1 . acc_valid_in $end
   $var wire 32 / add_result [31:0] $end
   $var wire 1 0 add_valid $end
   $var wire 1 1 waiting $end
   $scope module u_add $end
    $var wire 1 N clk $end
    $var wire 1 O rst_n $end
    $var wire 32 - a [31:0] $end
    $var wire 32 2 b [31:0] $end
    $var wire 1 . valid_in $end
    $var wire 32 / result [31:0] $end
    $var wire 1 0 valid_out $end
    $var wire 1 3 sign_a $end
    $var wire 1 4 sign_b $end
    $var wire 8 5 exp_a [7:0] $end
    $var wire 8 6 exp_b [7:0] $end
    $var wire 24 7 sig_a [23:0] $end
    $var wire 24 8 sig_b [23:0] $end
    $var wire 1 9 nan_a $end
    $var wire 1 : nan_b $end
    $var wire 1 ; inf_a $end
    $var wire 1 < inf_b $end
    $var wire 1 = zero_a $end
    $var wire 1 > zero_b $end
    $var wire 1 ? sign_l $end
    $var wire 1 @ sign_s $end
    $var wire 8 A exp_l [7:0] $end
    $var wire 8 B exp_diff [7:0] $end
    $var wire 25 C sig_l_ext [24:0] $end
    $var wire 25 D sig_s_ext [24:0] $end
    $var wire 25 E sig_s_aligned [24:0] $end
    $var wire 25 F sum [24:0] $end
    $var wire 1 G result_sign $end
    $var wire 8 H result_exp [7:0] $end
    $var wire 23 I result_man [22:0] $end
    $var wire 5 J lz [4:0] $end
    $var wire 25 K norm_sig [24:0] $end
    $var wire 32 L add_result_comb [31:0] $end
   $upscope $end
   $scope module u_mul $end
    $var wire 1 N clk $end
    $var wire 1 O rst_n $end
    $var wire 4 P a [3:0] $end
    $var wire 4 Q b [3:0] $end
    $var wire 1 R valid_in $end
    $var wire 32 # result [31:0] $end
    $var wire 1 $ valid_out $end
    $var wire 32 X lut_result [31:0] $end
    $scope module u_lut $end
     $var wire 4 P a [3:0] $end
     $var wire 4 Q b [3:0] $end
     $var wire 32 X result [31:0] $end
    $upscope $end
   $upscope $end
   $scope module unnamedblk1 $end
    $var wire 32 M i [31:0] $end
   $upscope $end
  $upscope $end
 $upscope $end
$enddefinitions $end


#0
b00000000000000000000000000000000 #
0$
b00000000000000000000000000000000 %
b00000000000000000000000000000000 &
b00000000000000000000000000000000 '
b00000000000000000000000000000000 (
b00000000000000000000000000000000 )
0*
b00 +
b00000000000000000000000000000000 ,
b00000000000000000000000000000000 -
0.
b00000000000000000000000000000000 /
00
01
b00000000000000000000000000000000 2
03
04
b00000000 5
b00000000 6
b000000000000000000000000 7
b000000000000000000000000 8
09
0:
0;
0<
1=
1>
0?
0@
b00000000 A
b00000000 B
b0000000000000000000000000 C
b0000000000000000000000000 D
b0000000000000000000000000 E
b0000000000000000000000000 F
0G
b00000000 H
b00000000000000000000000 I
b00000 J
b0000000000000000000000000 K
b00000000000000000000000000000000 L
b00000000000000000000000000000000 M
0N
0O
b0000 P
b0000 Q
0R
b0000 S
b0000 T
0U
b00000000000000000000000000000000 V
0W
b00000000000000000000000000000000 X
b00000000000000000000000000000100 Y
#1
b00000000000000000000000000000100 M
1N
#2
0N
#3
1N
#4
0N
#5
1N
#6
0N
1O
#7
1N
#8
0N
b0010 P
b0010 Q
1R
b00111111100000000000000000000000 X
#9
b00111111100000000000000000000000 #
1$
1N
b0010 S
b0010 T
1U
#10
0N
b0000 P
b0000 Q
b00000000000000000000000000000000 X
#11
b00000000000000000000000000000000 #
b00111111100000000000000000000000 %
b00000000000000000000000000000001 )
b00111111100000000000000000000000 2
b01111111 6
b100000000000000000000000 8
0>
b00111111100000000000000000000000 L
1N
b0000 S
b0000 T
#12
0N
b0010 P
b0010 Q
b00111111100000000000000000000000 X
#13
b00111111100000000000000000000000 #
b00000000000000000000000000000010 )
b00111111100000000000000000000000 /
1N
b0010 S
b0010 T
#14
0N
b0000 P
b0000 Q
b00000000000000000000000000000000 X
#15
b00000000000000000000000000000000 #
b00111111100000000000000000000000 '
b00000000000000000000000000000011 )
1N
b0000 S
b0000 T
#16
0N
0R
#17
0$
b00000000000000000000000000000100 )
1*
1N
0U
#18
0N
#19
b01 +
1.
1N
#20
0N
#21
0.
10
11
1N
#22
0N
#23
b00000000000000000000000000000001 ,
b00111111100000000000000000000000 -
1.
00
01
b00000000000000000000000000000000 2
b01111111 5
b00000000 6
b100000000000000000000000 7
b000000000000000000000000 8
0=
1>
1N
b00111111100000000000000000000000 V
#24
0N
#25
0.
10
11
1N
#26
0N
#27
b00000000000000000000000000000010 ,
1.
00
01
b00111111100000000000000000000000 2
b01111111 6
b100000000000000000000000 8
0>
b01111111 A
b0100000000000000000000000 C
b0100000000000000000000000 D
b0100000000000000000000000 E
b1000000000000000000000000 F
b10000000 H
b01000000000000000000000000000000 L
1N
#28
0N
#29
0.
b01000000000000000000000000000000 /
10
11
1N
#30
0N
#31
b00000000000000000000000000000011 ,
b01000000000000000000000000000000 -
1.
00
01
b00000000000000000000000000000000 2
b10000000 5
b00000000 6
b000000000000000000000000 8
1>
b00000000 A
b0000000000000000000000000 C
b0000000000000000000000000 D
b0000000000000000000000000 E
b0000000000000000000000000 F
b00000000 H
1N
b01000000000000000000000000000000 V
#32
0N
#33
0.
10
11
1N
#34
0N
#35
b10 +
00
01
1N
1W
#36
0N
#37
1N
#38
0N
#39
1N
#40
0N
#41
1N
#42
0N
#43
1N
#44
0N
#45
1N
#46
0N
#47
1N
#48
0N
#49
1N
#50
0N
#51
1N
#52
0N
#53
1N
#54
0N
#55
1N
#56
0N
#57
1N
#58
0N
#59
1N
#60
0N
#61
1N
#62
0N
#63
1N
#64
0N
#65
1N
#66
0N
0O
#67
b00000000000000000000000000000000 %
b00000000000000000000000000000000 '
b00000000000000000000000000000000 )
0*
b00 +
b00000000000000000000000000000000 ,
b00000000000000000000000000000000 -
b00000000000000000000000000000000 /
b00000000 5
b000000000000000000000000 7
1=
b00000000000000000000000000000000 L
1N
b00000000000000000000000000000000 V
0W
#68
0N
#69
1N
#70
0N
#71
1N
#72
0N
1O
#73
1N
#74
0N
b0010 P
b0100 Q
1R
b01000000000000000000000000000000 X
#75
b01000000000000000000000000000000 #
1$
1N
b0010 S
b0100 T
1U
#76
0N
b0011 P
b0010 Q
b00111111110000000000000000000000 X
#77
b00111111110000000000000000000000 #
b01000000000000000000000000000000 %
b00000000000000000000000000000001 )
b01000000000000000000000000000000 2
b10000000 6
b100000000000000000000000 8
0>
b01000000000000000000000000000000 L
1N
b0011 S
b0010 T
#78
0N
b0100 P
b0001 Q
b00111111100000000000000000000000 X
#79
b00111111100000000000000000000000 #
b00111111110000000000000000000000 &
b00000000000000000000000000000010 )
b01000000000000000000000000000000 /
1N
b0100 S
b0001 T
#80
0N
b0001 P
b0011 Q
b00111111010000000000000000000000 X
#81
b00111111010000000000000000000000 #
b00111111100000000000000000000000 '
b00000000000000000000000000000011 )
1N
b0001 S
b0011 T
#82
0N
b0000 P
b0000 Q
0R
b00000000000000000000000000000000 X
#83
b00000000000000000000000000000000 #
0$
b00111111010000000000000000000000 (
b00000000000000000000000000000100 )
1*
1N
b0000 S
b0000 T
0U
#84
0N
#85
b01 +
1.
1N
#86
0N
#87
0.
10
11
1N
#88
0N
#89
b00000000000000000000000000000001 ,
b01000000000000000000000000000000 -
1.
00
01
b00111111110000000000000000000000 2
b10000000 5
b01111111 6
b100000000000000000000000 7
b110000000000000000000000 8
0=
b10000000 A
b00000001 B
b0100000000000000000000000 C
b0110000000000000000000000 D
b0011000000000000000000000 E
b0111000000000000000000000 F
b10000000 H
b11000000000000000000000 I
b0111000000000000000000000 K
b01000000011000000000000000000000 L
1N
b01000000000000000000000000000000 V
#90
0N
#91
0.
b01000000011000000000000000000000 /
10
11
1N
#92
0N
#93
b00000000000000000000000000000010 ,
b01000000011000000000000000000000 -
1.
00
01
b00111111100000000000000000000000 2
b111000000000000000000000 7
b100000000000000000000000 8
b0111000000000000000000000 C
b0100000000000000000000000 D
b0010000000000000000000000 E
b1001000000000000000000000 F
b10000001 H
b00100000000000000000000 I
b0000000000000000000000000 K
b01000000100100000000000000000000 L
1N
b01000000011000000000000000000000 V
#94
0N
#95
0.
b01000000100100000000000000000000 /
10
11
1N
#96
0N
#97
b00000000000000000000000000000011 ,
b01000000100100000000000000000000 -
1.
00
01
b00111111010000000000000000000000 2
b10000001 5
b01111110 6
b100100000000000000000000 7
b110000000000000000000000 8
b10000001 A
b00000011 B
b0100100000000000000000000 C
b0110000000000000000000000 D
b0000110000000000000000000 E
b0101010000000000000000000 F
b01010000000000000000000 I
b0101010000000000000000000 K
b01000000101010000000000000000000 L
1N
b01000000100100000000000000000000 V
#98
0N
#99
0.
b01000000101010000000000000000000 /
10
11
1N
#100
0N
#101
b10 +
b01000000101010000000000000000000 -
00
01
b101010000000000000000000 7
b0101010000000000000000000 C
b0110000000000000000000000 F
b10000000000000000000000 I
b0110000000000000000000000 K
b01000000110000000000000000000000 L
1N
b01000000101010000000000000000000 V
1W
#102
0N
#103
b01000000110000000000000000000000 /
1N
#104
0N
#105
1N
#106
0N
#107
1N
#108
0N
#109
1N
#110
0N
#111
1N
#112
0N
#113
1N
#114
0N
#115
1N
#116
0N
#117
1N
#118
0N
#119
1N
#120
0N
#121
1N
#122
0N
#123
1N
#124
0N
#125
1N
#126
0N
#127
1N
#128
0N
#129
1N
#130
0N
#131
1N
#132
0N
0O
#133
b00000000000000000000000000000000 %
b00000000000000000000000000000000 &
b00000000000000000000000000000000 '
b00000000000000000000000000000000 (
b00000000000000000000000000000000 )
0*
b00 +
b00000000000000000000000000000000 ,
b00000000000000000000000000000000 -
b00000000000000000000000000000000 /
b00000000000000000000000000000000 2
b00000000 5
b00000000 6
b000000000000000000000000 7
b000000000000000000000000 8
1=
1>
b00000000 A
b00000000 B
b0000000000000000000000000 C
b0000000000000000000000000 D
b0000000000000000000000000 E
b0000000000000000000000000 F
b00000000 H
b00000000000000000000000 I
b0000000000000000000000000 K
b00000000000000000000000000000000 L
1N
b00000000000000000000000000000000 V
0W
#134
0N
#135
1N
#136
0N
#137
1N
#138
0N
1O
#139
1N
#140
0N
b0010 P
b0010 Q
1R
b00111111100000000000000000000000 X
#141
b00111111100000000000000000000000 #
1$
1N
b0010 S
b0010 T
1U
#142
0N
b1010 P
b10111111100000000000000000000000 X
#143
b10111111100000000000000000000000 #
b00111111100000000000000000000000 %
b00000000000000000000000000000001 )
b00111111100000000000000000000000 2
b01111111 6
b100000000000000000000000 8
0>
b00111111100000000000000000000000 L
1N
b1010 S
#144
0N
b0010 P
b00111111100000000000000000000000 X
#145
b00111111100000000000000000000000 #
b10111111100000000000000000000000 &
b00000000000000000000000000000010 )
b00111111100000000000000000000000 /
1N
b0010 S
#146
0N
b1010 P
b10111111100000000000000000000000 X
#147
b10111111100000000000000000000000 #
b00111111100000000000000000000000 '
b00000000000000000000000000000011 )
1N
b1010 S
#148
0N
b0000 P
b0000 Q
0R
b00000000000000000000000000000000 X
#149
b00000000000000000000000000000000 #
0$
b10111111100000000000000000000000 (
b00000000000000000000000000000100 )
1*
1N
b0000 S
b0000 T
0U
#150
0N
#151
b01 +
1.
1N
#152
0N
#153
0.
10
11
1N
#154
0N
#155
b00000000000000000000000000000001 ,
b00111111100000000000000000000000 -
1.
00
01
b10111111100000000000000000000000 2
14
b01111111 5
b100000000000000000000000 7
0=
1@
b01111111 A
b0100000000000000000000000 C
b0100000000000000000000000 D
b0100000000000000000000000 E
b00000000000000000000000000000000 L
1N
b00111111100000000000000000000000 V
#156
0N
#157
0.
b00000000000000000000000000000000 /
10
11
1N
#158
0N
#159
b00000000000000000000000000000010 ,
b00000000000000000000000000000000 -
1.
00
01
b00111111100000000000000000000000 2
04
b00000000 5
b000000000000000000000000 7
1=
0@
b00000000 A
b0000000000000000000000000 C
b0000000000000000000000000 D
b0000000000000000000000000 E
b00111111100000000000000000000000 L
1N
b00000000000000000000000000000000 V
#160
0N
#161
0.
b00111111100000000000000000000000 /
10
11
1N
#162
0N
#163
b00000000000000000000000000000011 ,
b00111111100000000000000000000000 -
1.
00
01
b10111111100000000000000000000000 2
14
b01111111 5
b100000000000000000000000 7
0=
1@
b01111111 A
b0100000000000000000000000 C
b0100000000000000000000000 D
b0100000000000000000000000 E
b00000000000000000000000000000000 L
1N
b00111111100000000000000000000000 V
#164
0N
#165
0.
b00000000000000000000000000000000 /
10
11
1N
#166
0N
#167
b10 +
b00000000000000000000000000000000 -
00
01
b00000000 5
b000000000000000000000000 7
1=
0@
b00000000 A
b0000000000000000000000000 C
b0000000000000000000000000 D
b0000000000000000000000000 E
b10111111100000000000000000000000 L
1N
b00000000000000000000000000000000 V
1W
#168
0N
#169
b10111111100000000000000000000000 /
1N
#170
0N
#171
1N
#172
0N
#173
1N
#174
0N
#175
1N
#176
0N
#177
1N
#178
0N
#179
1N
#180
0N
#181
1N
#182
0N
#183
1N
#184
0N
#185
1N
#186
0N
#187
1N
#188
0N
#189
1N
#190
0N
#191
1N
#192
0N
#193
1N
#194
0N
#195
1N
#196
0N
#197
1N
#198
0N
0O
#199
b00000000000000000000000000000000 %
b00000000000000000000000000000000 &
b00000000000000000000000000000000 '
b00000000000000000000000000000000 (
b00000000000000000000000000000000 )
0*
b00 +
b00000000000000000000000000000000 ,
b00000000000000000000000000000000 /
b00000000000000000000000000000000 2
04
b00000000 6
b000000000000000000000000 8
1>
b00000000000000000000000000000000 L
1N
0W
#200
0N
#201
1N
#202
0N
#203
1N
#204
0N
1O
#205
1N
#206
0N
b0111 P
b0111 Q
1R
b01000010000100000000000000000000 X
#207
b01000010000100000000000000000000 #
1$
1N
b0111 S
b0111 T
1U
#208
0N
#209
b01000010000100000000000000000000 %
b00000000000000000000000000000001 )
b01000010000100000000000000000000 2
b10000100 6
b100100000000000000000000 8
0>
b01000010000100000000000000000000 L
1N
#210
0N
#211
b01000010000100000000000000000000 &
b00000000000000000000000000000010 )
b01000010000100000000000000000000 /
1N
#212
0N
#213
b01000010000100000000000000000000 '
b00000000000000000000000000000011 )
1N
#214
0N
b0000 P
b0000 Q
0R
b00000000000000000000000000000000 X
#215
b00000000000000000000000000000000 #
0$
b01000010000100000000000000000000 (
b00000000000000000000000000000100 )
1*
1N
b0000 S
b0000 T
0U
#216
0N
#217
b01 +
1.
1N
#218
0N
#219
0.
10
11
1N
#220
0N
#221
b00000000000000000000000000000001 ,
b01000010000100000000000000000000 -
1.
00
01
b10000100 5
b100100000000000000000000 7
0=
b10000100 A
b0100100000000000000000000 C
b0100100000000000000000000 D
b0100100000000000000000000 E
b1001000000000000000000000 F
b10000101 H
b00100000000000000000000 I
b01000010100100000000000000000000 L
1N
b01000010000100000000000000000000 V
#222
0N
#223
0.
b01000010100100000000000000000000 /
10
11
1N
#224
0N
#225
b00000000000000000000000000000010 ,
b01000010100100000000000000000000 -
1.
00
01
b10000101 5
b10000101 A
b00000001 B
b0010010000000000000000000 E
b0110110000000000000000000 F
b10110000000000000000000 I
b0110110000000000000000000 K
b01000010110110000000000000000000 L
1N
b01000010100100000000000000000000 V
#226
0N
#227
0.
b01000010110110000000000000000000 /
10
11
1N
#228
0N
#229
b00000000000000000000000000000011 ,
b01000010110110000000000000000000 -
1.
00
01
b110110000000000000000000 7
b0110110000000000000000000 C
b1001000000000000000000000 F
b10000110 H
b00100000000000000000000 I
b0000000000000000000000000 K
b01000011000100000000000000000000 L
1N
b01000010110110000000000000000000 V
#230
0N
#231
0.
b01000011000100000000000000000000 /
10
11
1N
#232
0N
#233
b10 +
b01000011000100000000000000000000 -
00
01
b10000110 5
b100100000000000000000000 7
b10000110 A
b00000010 B
b0100100000000000000000000 C
b0001001000000000000000000 E
b0101101000000000000000000 F
b01101000000000000000000 I
b0101101000000000000000000 K
b01000011001101000000000000000000 L
1N
b01000011000100000000000000000000 V
1W
#234
0N
#235
b01000011001101000000000000000000 /
1N
#236
0N
#237
1N
#238
0N
#239
1N
#240
0N
#241
1N
#242
0N
#243
1N
#244
0N
#245
1N
#246
0N
#247
1N
#248
0N
#249
1N
#250
0N
#251
1N
#252
0N
#253
1N
#254
0N
#255
1N
#256
0N
#257
1N
#258
0N
#259
1N
#260
0N
#261
1N
#262
0N
#263
1N
#264
0N
0O
#265
b00000000000000000000000000000000 %
b00000000000000000000000000000000 &
b00000000000000000000000000000000 '
b00000000000000000000000000000000 (
b00000000000000000000000000000000 )
0*
b00 +
b00000000000000000000000000000000 ,
b00000000000000000000000000000000 -
b00000000000000000000000000000000 /
b00000000000000000000000000000000 2
b00000000 5
b00000000 6
b000000000000000000000000 7
b000000000000000000000000 8
1=
1>
b00000000 A
b00000000 B
b0000000000000000000000000 C
b0000000000000000000000000 D
b0000000000000000000000000 E
b0000000000000000000000000 F
b00000000 H
b00000000000000000000000 I
b0000000000000000000000000 K
b00000000000000000000000000000000 L
1N
b00000000000000000000000000000000 V
0W
#266
0N
#267
1N
#268
0N
#269
1N
#270
0N
1O
#271
1N
#272
0N
b1111 P
b1111 Q
1R
b01000010000100000000000000000000 X
#273
b01000010000100000000000000000000 #
1$
1N
b1111 S
b1111 T
1U
#274
0N
#275
b01000010000100000000000000000000 %
b00000000000000000000000000000001 )
b01000010000100000000000000000000 2
b10000100 6
b100100000000000000000000 8
0>
b01000010000100000000000000000000 L
1N
#276
0N
#277
b01000010000100000000000000000000 &
b00000000000000000000000000000010 )
b01000010000100000000000000000000 /
1N
#278
0N
#279
b01000010000100000000000000000000 '
b00000000000000000000000000000011 )
1N
#280
0N
b0000 P
b0000 Q
0R
b00000000000000000000000000000000 X
#281
b00000000000000000000000000000000 #
0$
b01000010000100000000000000000000 (
b00000000000000000000000000000100 )
1*
1N
b0000 S
b0000 T
0U
#282
0N
#283
b01 +
1.
1N
#284
0N
#285
0.
10
11
1N
#286
0N
#287
b00000000000000000000000000000001 ,
b01000010000100000000000000000000 -
1.
00
01
b10000100 5
b100100000000000000000000 7
0=
b10000100 A
b0100100000000000000000000 C
b0100100000000000000000000 D
b0100100000000000000000000 E
b1001000000000000000000000 F
b10000101 H
b00100000000000000000000 I
b01000010100100000000000000000000 L
1N
b01000010000100000000000000000000 V
#288
0N
#289
0.
b01000010100100000000000000000000 /
10
11
1N
#290
0N
#291
b00000000000000000000000000000010 ,
b01000010100100000000000000000000 -
1.
00
01
b10000101 5
b10000101 A
b00000001 B
b0010010000000000000000000 E
b0110110000000000000000000 F
b10110000000000000000000 I
b0110110000000000000000000 K
b01000010110110000000000000000000 L
1N
b01000010100100000000000000000000 V
#292
0N
#293
0.
b01000010110110000000000000000000 /
10
11
1N
#294
0N
#295
b00000000000000000000000000000011 ,
b01000010110110000000000000000000 -
1.
00
01
b110110000000000000000000 7
b0110110000000000000000000 C
b1001000000000000000000000 F
b10000110 H
b00100000000000000000000 I
b0000000000000000000000000 K
b01000011000100000000000000000000 L
1N
b01000010110110000000000000000000 V
#296
0N
#297
0.
b01000011000100000000000000000000 /
10
11
1N
#298
0N
#299
b10 +
b01000011000100000000000000000000 -
00
01
b10000110 5
b100100000000000000000000 7
b10000110 A
b00000010 B
b0100100000000000000000000 C
b0001001000000000000000000 E
b0101101000000000000000000 F
b01101000000000000000000 I
b0101101000000000000000000 K
b01000011001101000000000000000000 L
1N
b01000011000100000000000000000000 V
1W
#300
0N
#301
b01000011001101000000000000000000 /
1N
#302
0N
#303
1N
#304
0N
#305
1N
#306
0N
#307
1N
#308
0N
#309
1N
#310
0N
#311
1N
#312
0N
#313
1N
#314
0N
#315
1N
#316
0N
#317
1N
#318
0N
#319
1N
#320
0N
#321
1N
#322
0N
#323
1N
#324
0N
#325
1N
#326
0N
#327
1N
#328
0N
#329
1N
#330
0N
0O
#331
b00000000000000000000000000000000 %
b00000000000000000000000000000000 &
b00000000000000000000000000000000 '
b00000000000000000000000000000000 (
b00000000000000000000000000000000 )
0*
b00 +
b00000000000000000000000000000000 ,
b00000000000000000000000000000000 -
b00000000000000000000000000000000 /
b00000000000000000000000000000000 2
b00000000 5
b00000000 6
b000000000000000000000000 7
b000000000000000000000000 8
1=
1>
b00000000 A
b00000000 B
b0000000000000000000000000 C
b0000000000000000000000000 D
b0000000000000000000000000 E
b0000000000000000000000000 F
b00000000 H
b00000000000000000000000 I
b0000000000000000000000000 K
b00000000000000000000000000000000 L
1N
b00000000000000000000000000000000 V
0W
#332
0N
#333
1N
#334
0N
#335
1N
#336
0N
1O
#337
1N
#338
0N
b1111 P
b0111 Q
1R
b11000010000100000000000000000000 X
#339
b11000010000100000000000000000000 #
1$
1N
b1111 S
b0111 T
1U
#340
0N
#341
b11000010000100000000000000000000 %
b00000000000000000000000000000001 )
b11000010000100000000000000000000 2
14
b10000100 6
b100100000000000000000000 8
0>
b11000010000100000000000000000000 L
1N
#342
0N
#343
b11000010000100000000000000000000 &
b00000000000000000000000000000010 )
b11000010000100000000000000000000 /
1N
#344
0N
#345
b11000010000100000000000000000000 '
b00000000000000000000000000000011 )
1N
#346
0N
b0000 P
b0000 Q
0R
b00000000000000000000000000000000 X
#347
b00000000000000000000000000000000 #
0$
b11000010000100000000000000000000 (
b00000000000000000000000000000100 )
1*
1N
b0000 S
b0000 T
0U
#348
0N
#349
b01 +
1.
1N
#350
0N
#351
0.
10
11
1N
#352
0N
#353
b00000000000000000000000000000001 ,
b11000010000100000000000000000000 -
1.
00
01
13
b10000100 5
b100100000000000000000000 7
0=
1?
1@
b10000100 A
b0100100000000000000000000 C
b0100100000000000000000000 D
b0100100000000000000000000 E
b1001000000000000000000000 F
1G
b10000101 H
b00100000000000000000000 I
b11000010100100000000000000000000 L
1N
b11000010000100000000000000000000 V
#354
0N
#355
0.
b11000010100100000000000000000000 /
10
11
1N
#356
0N
#357
b00000000000000000000000000000010 ,
b11000010100100000000000000000000 -
1.
00
01
b10000101 5
b10000101 A
b00000001 B
b0010010000000000000000000 E
b0110110000000000000000000 F
b10110000000000000000000 I
b0110110000000000000000000 K
b11000010110110000000000000000000 L
1N
b11000010100100000000000000000000 V
#358
0N
#359
0.
b11000010110110000000000000000000 /
10
11
1N
#360
0N
#361
b00000000000000000000000000000011 ,
b11000010110110000000000000000000 -
1.
00
01
b110110000000000000000000 7
b0110110000000000000000000 C
b1001000000000000000000000 F
b10000110 H
b00100000000000000000000 I
b0000000000000000000000000 K
b11000011000100000000000000000000 L
1N
b11000010110110000000000000000000 V
#362
0N
#363
0.
b11000011000100000000000000000000 /
10
11
1N
#364
0N
#365
b10 +
b11000011000100000000000000000000 -
00
01
b10000110 5
b100100000000000000000000 7
b10000110 A
b00000010 B
b0100100000000000000000000 C
b0001001000000000000000000 E
b0101101000000000000000000 F
b01101000000000000000000 I
b0101101000000000000000000 K
b11000011001101000000000000000000 L
1N
b11000011000100000000000000000000 V
1W
#366
0N
#367
b11000011001101000000000000000000 /
1N
#368
0N
#369
1N
#370
0N
#371
1N
#372
0N
#373
1N
#374
0N
#375
1N
#376
0N
#377
1N
#378
0N
#379
1N
#380
0N
#381
1N
#382
0N
#383
1N
#384
0N
#385
1N
#386
0N
#387
1N
#388
0N
#389
1N
#390
0N
#391
1N
#392
0N
#393
1N
#394
0N
#395
1N
#396
0N
0O
#397
b00000000000000000000000000000000 %
b00000000000000000000000000000000 &
b00000000000000000000000000000000 '
b00000000000000000000000000000000 (
b00000000000000000000000000000000 )
0*
b00 +
b00000000000000000000000000000000 ,
b00000000000000000000000000000000 -
b00000000000000000000000000000000 /
b00000000000000000000000000000000 2
03
04
b00000000 5
b00000000 6
b000000000000000000000000 7
b000000000000000000000000 8
1=
1>
0?
0@
b00000000 A
b00000000 B
b0000000000000000000000000 C
b0000000000000000000000000 D
b0000000000000000000000000 E
b0000000000000000000000000 F
0G
b00000000 H
b00000000000000000000000 I
b0000000000000000000000000 K
b00000000000000000000000000000000 L
1N
b00000000000000000000000000000000 V
0W
#398
0N
#399
1N
#400
0N
#401
1N
#402
0N
1O
#403
1N
#404
0N
1R
#405
1$
1N
1U
#406
0N
#407
b00000000000000000000000000000001 )
1N
#408
0N
#409
b00000000000000000000000000000010 )
1N
#410
0N
#411
b00000000000000000000000000000011 )
1N
#412
0N
0R
#413
0$
b00000000000000000000000000000100 )
1*
1N
0U
#414
0N
#415
b01 +
1.
1N
#416
0N
#417
0.
10
11
1N
#418
0N
#419
b00000000000000000000000000000001 ,
1.
00
01
1N
#420
0N
#421
0.
10
11
1N
#422
0N
#423
b00000000000000000000000000000010 ,
1.
00
01
1N
#424
0N
#425
0.
10
11
1N
#426
0N
#427
b00000000000000000000000000000011 ,
1.
00
01
1N
#428
0N
#429
0.
10
11
1N
#430
0N
#431
b10 +
00
01
1N
1W
#432
0N
#433
1N
#434
0N
#435
1N
#436
0N
#437
1N
#438
0N
#439
1N
#440
0N
#441
1N
#442
0N
#443
1N
#444
0N
#445
1N
#446
0N
#447
1N
#448
0N
#449
1N
#450
0N
#451
1N
#452
0N
#453
1N
#454
0N
#455
1N
#456
0N
#457
1N
#458
0N
#459
1N
#460
0N
#461
1N
#462
0N
0O
#463
b00000000000000000000000000000000 )
0*
b00 +
b00000000000000000000000000000000 ,
1N
0W
#464
0N
#465
1N
#466
0N
#467
1N
#468
0N
1O
#469
1N
#470
0N
b0101 P
b0100 Q
1R
b01000000110000000000000000000000 X
#471
b01000000110000000000000000000000 #
1$
1N
b0101 S
b0100 T
1U
#472
0N
b0000 P
b0000 Q
b00000000000000000000000000000000 X
#473
b00000000000000000000000000000000 #
b01000000110000000000000000000000 %
b00000000000000000000000000000001 )
b01000000110000000000000000000000 2
b10000001 6
b110000000000000000000000 8
0>
b01000000110000000000000000000000 L
1N
b0000 S
b0000 T
#474
0N
#475
b00000000000000000000000000000010 )
b01000000110000000000000000000000 /
1N
#476
0N
#477
b00000000000000000000000000000011 )
1N
#478
0N
0R
#479
0$
b00000000000000000000000000000100 )
1*
1N
0U
#480
0N
#481
b01 +
1.
1N
#482
0N
#483
0.
10
11
1N
#484
0N
#485
b00000000000000000000000000000001 ,
b01000000110000000000000000000000 -
1.
00
01
b00000000000000000000000000000000 2
b10000001 5
b00000000 6
b110000000000000000000000 7
b000000000000000000000000 8
0=
1>
1N
b01000000110000000000000000000000 V
#486
0N
#487
0.
10
11
1N
#488
0N
#489
b00000000000000000000000000000010 ,
1.
00
01
1N
#490
0N
#491
0.
10
11
1N
#492
0N
#493
b00000000000000000000000000000011 ,
1.
00
01
1N
#494
0N
#495
0.
10
11
1N
#496
0N
#497
b10 +
00
01
1N
1W
#498
0N
#499
1N
#500
0N
#501
1N
#502
0N
#503
1N
#504
0N
#505
1N
#506
0N
#507
1N
#508
0N
#509
1N
#510
0N
#511
1N
#512
0N
#513
1N
#514
0N
#515
1N
#516
0N
#517
1N
#518
0N
#519
1N
#520
0N
#521
1N
#522
0N
#523
1N
#524
0N
#525
1N
#526
0N
#527
1N
#528
0N
0O
#529
b00000000000000000000000000000000 %
b00000000000000000000000000000000 )
0*
b00 +
b00000000000000000000000000000000 ,
b00000000000000000000000000000000 -
b00000000000000000000000000000000 /
b00000000 5
b000000000000000000000000 7
1=
b00000000000000000000000000000000 L
1N
b00000000000000000000000000000000 V
0W
#530
0N
#531
1N
#532
0N
#533
1N
#534
0N
1O
#535
1N
#536
0N
b0001 P
b1001 Q
1R
b10111110100000000000000000000000 X
#537
b10111110100000000000000000000000 #
1$
1N
b0001 S
b1001 T
1U
#538
0N
b0011 P
b1011 Q
b11000000000100000000000000000000 X
#539
b11000000000100000000000000000000 #
b10111110100000000000000000000000 %
b00000000000000000000000000000001 )
b10111110100000000000000000000000 2
14
b01111101 6
b100000000000000000000000 8
0>
b10111110100000000000000000000000 L
1N
b0011 S
b1011 T
#540
0N
b0101 P
b1101 Q
b11000001000100000000000000000000 X
#541
b11000001000100000000000000000000 #
b11000000000100000000000000000000 &
b00000000000000000000000000000010 )
b10111110100000000000000000000000 /
1N
b0101 S
b1101 T
#542
0N
b0111 P
b1111 Q
b11000010000100000000000000000000 X
#543
b11000010000100000000000000000000 #
b11000001000100000000000000000000 '
b00000000000000000000000000000011 )
1N
b0111 S
b1111 T
#544
0N
b0000 P
b0000 Q
0R
b00000000000000000000000000000000 X
#545
b00000000000000000000000000000000 #
0$
b11000010000100000000000000000000 (
b00000000000000000000000000000100 )
1*
1N
b0000 S
b0000 T
0U
#546
0N
#547
b01 +
1.
1N
#548
0N
#549
0.
10
11
1N
#550
0N
