project/upgrade_archive/tb/tile_ctrl_wave.vcd
$version Generated by VerilatedVcd $end
$timescale 1ps $end
 $scope module TOP $end
  $var wire 1 K clk $end
  $var wire 1 L rst_n $end
  $var wire 1 M start $end
  $var wire 4 N matrix_size [3:0] $end
  $var wire 1 O done $end
  $var wire 32 P tile_count [31:0] $end
  $var wire 32 Q cycle_count [31:0] $end
  $var wire 32 R tile_cycles [31:0] $end
  $var wire 1 S s_tvalid $end
  $var wire 1 T s_tready $end
  $var wire 64 U s_tdata [63:0] $end
  $var wire 1 W s_tlast $end
  $var wire 1 X m_tvalid $end
  $var wire 1 Y m_tready $end
  $var wire 64 Z m_tdata [63:0] $end
  $var wire 1 \ m_tlast $end
  $var wire 1 ] sq_wr_en $end
  $var wire 5 ^ sq_wr_addr [4:0] $end
  $var wire 32 _ sq_wr_data [31:0] $end
  $var wire 4 ` sq_rd_addr [3:0] $end
  $var wire 32 a sq_rd_data [31:0] $end
  $var wire 4 b sk_rd_addr [3:0] $end
  $var wire 32 c sk_rd_data [31:0] $end
  $var wire 1 d q_wr_en $end
  $var wire 2 e q_wr_row [1:0] $end
  $var wire 2 f q_wr_col [1:0] $end
  $var wire 4 g q_wr_data [3:0] $end
  $var wire 2 h q_rd_row [1:0] $end
  $var wire 2 i q_rd_col [1:0] $end
  $var wire 4 j q_rd_data [3:0] $end
  $var wire 1 k k_wr_en $end
  $var wire 2 l k_wr_row [1:0] $end
  $var wire 2 m k_wr_col [1:0] $end
  $var wire 4 n k_wr_data [3:0] $end
  $var wire 2 o k_rd_row [1:0] $end
  $var wire 2 p k_rd_col [1:0] $end
  $var wire 4 q k_rd_data [3:0] $end
  $var wire 1 r out_wr_en $end
  $var wire 2 s out_wr_row [1:0] $end
  $var wire 2 t out_wr_col [1:0] $end
  $var wire 32 u out_wr_data [31:0] $end
  $var wire 2 v out_rd_row [1:0] $end
  $var wire 2 w out_rd_col [1:0] $end
  $var wire 32 x out_rd_data [31:0] $end
  $var wire 4 y arr_a_in[0] [3:0] $end
  $var wire 4 z arr_a_in[1] [3:0] $end
  $var wire 4 { arr_a_in[2] [3:0] $end
  $var wire 4 | arr_a_in[3] [3:0] $end
  $var wire 4 } arr_b_in[0] [3:0] $end
  $var wire 4 ~ arr_b_in[1] [3:0] $end
  $var wire 4 !! arr_b_in[2] [3:0] $end
  $var wire 4 "! arr_b_in[3] [3:0] $end
  $var wire 1 #! arr_valid_in $end
  $var wire 32 $! arr_result[0][0] [31:0] $end
  $var wire 32 %! arr_result[0][1] [31:0] $end
  $var wire 32 &! arr_result[0][2] [31:0] $end
  $var wire 32 '! arr_result[0][3] [31:0] $end
  $var wire 32 (! arr_result[1][0] [31:0] $end
  $var wire 32 )! arr_result[1][1] [31:0] $end
  $var wire 32 *! arr_result[1][2] [31:0] $end
  $var wire 32 +! arr_result[1][3] [31:0] $end
  $var wire 32 ,! arr_result[2][0] [31:0] $end
  $var wire 32 -! arr_result[2][1] [31:0] $end
  $var wire 32 .! arr_result[2][2] [31:0] $end
  $var wire 32 /! arr_result[2][3] [31:0] $end
  $var wire 32 0! arr_result[3][0] [31:0] $end
  $var wire 32 1! arr_result[3][1] [31:0] $end
  $var wire 32 2! arr_result[3][2] [31:0] $end
  $var wire 32 3! arr_result[3][3] [31:0] $end
  $var wire 1 4! arr_result_valid $end
  $var wire 32 5! deq_a [31:0] $end
  $var wire 32 6! deq_b [31:0] $end
  $var wire 1 7! deq_valid $end
  $var wire 32 8! deq_result [31:0] $end
  $var wire 1 9! deq_result_valid $end
  $scope module tile_controller $end
   $var wire 32 :! TILE_SIZE [31:0] $end
   $var wire 32 :! D_HEAD [31:0] $end
   $var wire 32 ;! T_MAX [31:0] $end
   $var wire 1 K clk $end
   $var wire 1 L rst_n $end
   $var wire 1 M start $end
   $var wire 4 N matrix_size [3:0] $end
   $var wire 1 O done $end
   $var wire 32 P tile_count [31:0] $end
   $var wire 32 Q cycle_count [31:0] $end
   $var wire 32 R tile_cycles [31:0] $end
   $var wire 1 S s_tvalid $end
   $var wire 1 T s_tready $end
   $var wire 64 U s_tdata [63:0] $end
   $var wire 1 W s_tlast $end
   $var wire 1 X m_tvalid $end
   $var wire 1 Y m_tready $end
   $var wire 64 Z m_tdata [63:0] $end
   $var wire 1 \ m_tlast $end
   $var wire 1 ] sq_wr_en $end
   $var wire 5 ^ sq_wr_addr [4:0] $end
   $var wire 32 _ sq_wr_data [31:0] $end
   $var wire 4 ` sq_rd_addr [3:0] $end
   $var wire 32 a sq_rd_data [31:0] $end
   $var wire 4 b sk_rd_addr [3:0] $end
   $var wire 32 c sk_rd_data [31:0] $end
   $var wire 1 d q_wr_en $end
   $var wire 2 e q_wr_row [1:0] $end
   $var wire 2 f q_wr_col [1:0] $end
   $var wire 4 g q_wr_data [3:0] $end
   $var wire 2 h q_rd_row [1:0] $end
   $var wire 2 i q_rd_col [1:0] $end
   $var wire 4 j q_rd_data [3:0] $end
   $var wire 1 k k_wr_en $end
   $var wire 2 l k_wr_row [1:0] $end
   $var wire 2 m k_wr_col [1:0] $end
   $var wire 4 n k_wr_data [3:0] $end
   $var wire 2 o k_rd_row [1:0] $end
   $var wire 2 p k_rd_col [1:0] $end
   $var wire 4 q k_rd_data [3:0] $end
   $var wire 1 r out_wr_en $end
   $var wire 2 s out_wr_row [1:0] $end
   $var wire 2 t out_wr_col [1:0] $end
   $var wire 32 u out_wr_data [31:0] $end
   $var wire 2 v out_rd_row [1:0] $end
   $var wire 2 w out_rd_col [1:0] $end
   $var wire 32 x out_rd_data [31:0] $end
   $var wire 4 3 arr_a_in[0] [3:0] $end
   $var wire 4 4 arr_a_in[1] [3:0] $end
   $var wire 4 5 arr_a_in[2] [3:0] $end
   $var wire 4 6 arr_a_in[3] [3:0] $end
   $var wire 4 7 arr_b_in[0] [3:0] $end
   $var wire 4 8 arr_b_in[1] [3:0] $end
   $var wire 4 9 arr_b_in[2] [3:0] $end
   $var wire 4 : arr_b_in[3] [3:0] $end
   $var wire 1 #! arr_valid_in $end
   $var wire 32 # arr_result[0][0] [31:0] $end
   $var wire 32 $ arr_result[0][1] [31:0] $end
   $var wire 32 % arr_result[0][2] [31:0] $end
   $var wire 32 & arr_result[0][3] [31:0] $end
   $var wire 32 ' arr_result[1][0] [31:0] $end
   $var wire 32 ( arr_result[1][1] [31:0] $end
   $var wire 32 ) arr_result[1][2] [31:0] $end
   $var wire 32 * arr_result[1][3] [31:0] $end
   $var wire 32 + arr_result[2][0] [31:0] $end
   $var wire 32 , arr_result[2][1] [31:0] $end
   $var wire 32 - arr_result[2][2] [31:0] $end
   $var wire 32 . arr_result[2][3] [31:0] $end
   $var wire 32 / arr_result[3][0] [31:0] $end
   $var wire 32 0 arr_result[3][1] [31:0] $end
   $var wire 32 1 arr_result[3][2] [31:0] $end
   $var wire 32 2 arr_result[3][3] [31:0] $end
   $var wire 1 4! arr_result_valid $end
   $var wire 32 5! deq_a [31:0] $end
   $var wire 32 6! deq_b [31:0] $end
   $var wire 1 7! deq_valid $end
   $var wire 32 8! deq_result [31:0] $end
   $var wire 1 9! deq_result_valid $end
   $var wire 4 ; state [3:0] $end
   $var wire 4 < tile_row [3:0] $end
   $var wire 4 = tile_col [3:0] $end
   $var wire 4 > n_tiles [3:0] $end
   $var wire 32 ? d_counter [31:0] $end
   $var wire 32 @ load_count [31:0] $end
   $var wire 32 A cap_row [31:0] $end
   $var wire 32 B cap_col [31:0] $end
   $var wire 32 C deq_row [31:0] $end
   $var wire 32 D deq_col [31:0] $end
   $var wire 32 E send_count [31:0] $end
   $var wire 32 F tile_start_cycle [31:0] $end
   $var wire 1 G deq_phase $end
   $var wire 32 H deq_intermediate [31:0] $end
   $scope module unnamedblk1 $end
    $var wire 32 <! i [31:0] $end
   $upscope $end
   $scope module unnamedblk2 $end
    $var wire 32 I i [31:0] $end
   $upscope $end
   $scope module unnamedblk3 $end
    $var wire 32 J i [31:0] $end
   $upscope $end
  $upscope $end
 $upscope $end
$enddefinitions $end


#0
b00000000000000000000000000000000 #
b00000000000000000000000000000000 $
b00000000000000000000000000000000 %
b00000000000000000000000000000000 &
b00000000000000000000000000000000 '
b00000000000000000000000000000000 (
b00000000000000000000000000000000 )
b00000000000000000000000000000000 *
b00000000000000000000000000000000 +
b00000000000000000000000000000000 ,
b00000000000000000000000000000000 -
b00000000000000000000000000000000 .
b00000000000000000000000000000000 /
b00000000000000000000000000000000 0
b00000000000000000000000000000000 1
b00000000000000000000000000000000 2
b0000 3
b0000 4
b0000 5
b0000 6
b0000 7
b0000 8
b0000 9
b0000 :
b0000 ;
b0000 <
b0000 =
b0000 >
b00000000000000000000000000000000 ?
b00000000000000000000000000000000 @
b00000000000000000000000000000000 A
b00000000000000000000000000000000 B
b00000000000000000000000000000000 C
b00000000000000000000000000000000 D
b00000000000000000000000000000000 E
b00000000000000000000000000000000 F
0G
b00000000000000000000000000000000 H
b00000000000000000000000000000000 I
b00000000000000000000000000000000 J
0K
0L
0M
b0000 N
0O
b00000000000000000000000000000000 P
b00000000000000000000000000000000 Q
b00000000000000000000000000000000 R
0S
0T
b0000000000000000000000000000000000000000000000000000000000000000 U
0W
0X
0Y
b0000000000000000000000000000000000000000000000000000000000000000 Z
0\
0]
b00000 ^
b00000000000000000000000000000000 _
b0000 `
b00000000000000000000000000000000 a
b0000 b
b00000000000000000000000000000000 c
0d
b00 e
b00 f
b0000 g
b00 h
b00 i
b0000 j
0k
b00 l
b00 m
b0000 n
b00 o
b00 p
b0000 q
0r
b00 s
b00 t
b00000000000000000000000000000000 u
b00 v
b00 w
b00000000000000000000000000000000 x
b0000 y
b0000 z
b0000 {
b0000 |
b0000 }
b0000 ~
b0000 !!
b0000 "!
0#!
b00000000000000000000000000000000 $!
b00000000000000000000000000000000 %!
b00000000000000000000000000000000 &!
b00000000000000000000000000000000 '!
b00000000000000000000000000000000 (!
b00000000000000000000000000000000 )!
b00000000000000000000000000000000 *!
b00000000000000000000000000000000 +!
b00000000000000000000000000000000 ,!
b00000000000000000000000000000000 -!
b00000000000000000000000000000000 .!
b00000000000000000000000000000000 /!
b00000000000000000000000000000000 0!
b00000000000000000000000000000000 1!
b00000000000000000000000000000000 2!
b00000000000000000000000000000000 3!
04!
b00000000000000000000000000000000 5!
b00000000000000000000000000000000 6!
07!
b00000000000000000000000000000000 8!
09!
b00000000000000000000000000000100 :!
b00000000000000000000000000010000 ;!
b00000000000000000000000000000100 <!
#1
1K
b00111111100000000000000000000000 _
#2
0K
#3
1K
#4
0K
#5
1K
#6
0K
#7
1K
#8
0K
1L
#9
1K
#10
0K
b0100 N
#11
b0001 >
1K
#12
0K
1M
#13
b0001 ;
1K
#14
0K
0M
#15
1K
b00000000000000000000000000000001 Q
1T
#16
0K
1S
b0000000000000000000000000000000000111111000110011101100000000101 U
#17
b00000000000000000000000000000001 @
1K
b00000000000000000000000000000010 Q
1]
b00111111000110011101100000000101 _
#18
0K
b0000000000000000000000000000000000111111000101101101011100111110 U
#19
b00000000000000000000000000000010 @
1K
b00000000000000000000000000000011 Q
b00001 ^
b00111111000101101101011100111110 _
#20
0K
b0000000000000000000000000000000000111111001000111010001111110111 U
#21
b00000000000000000000000000000011 @
1K
b00000000000000000000000000000100 Q
b00010 ^
b00111111001000111010001111110111 _
#22
0K
b0000000000000000000000000000000000111110111000101111001010010000 U
1W
#23
b00000000000000000000000000000100 @
1K
b00000000000000000000000000000101 Q
b00011 ^
b00111110111000101111001010010000 _
#24
0K
b0000000000000000000000000000000000111110100011101000010101011010 U
0W
#25
b00000000000000000000000000000101 @
1K
b00000000000000000000000000000110 Q
b00100 ^
b00111110100011101000010101011010 _
#26
0K
b0000000000000000000000000000000000111110111101100001101100000100 U
#27
b00000000000000000000000000000110 @
1K
b00000000000000000000000000000111 Q
b00101 ^
b00111110111101100001101100000100 _
#28
0K
b0000000000000000000000000000000000111110110011010000010111010000 U
#29
b00000000000000000000000000000111 @
1K
b00000000000000000000000000001000 Q
b00110 ^
b00111110110011010000010111010000 _
#30
0K
b0000000000000000000000000000000000111111000110101100111111000101 U
1W
#31
b0010 ;
b00000000000000000000000000000000 @
b00000000000000000000000000001000 F
1K
b00000000000000000000000000001001 Q
b00111 ^
b00111111000110101100111111000101 _
#32
0K
0S
0W
#33
1K
b00000000000000000000000000001010 Q
0]
#34
0K
#35
1K
b00000000000000000000000000001011 Q
#36
0K
#37
1K
b00000000000000000000000000001100 Q
#38
0K
#39
1K
b00000000000000000000000000001101 Q
#40
0K
#41
1K
b00000000000000000000000000001110 Q
#42
0K
1S
b1111111111110111011111110101001101101111111011100011010101111011 U
1W
#43
b00000000000000000000000000000001 @
1K
b00000000000000000000000000001111 Q
1d
b1011 g
#44
0K
b1110001111110010000111110111101011001101111101001111110000011111 U
#45
b00000000000000000000000000000010 @
1K
b00000000000000000000000000010000 Q
b01 f
b1111 g
#46
0K
0S
0W
#47
1K
b00000000000000000000000000010001 Q
0d
#48
0K
#49
1K
b00000000000000000000000000010010 Q
#50
0K
#51
1K
b00000000000000000000000000010011 Q
#52
0K
#53
1K
b00000000000000000000000000010100 Q
#54
0K
#55
1K
b00000000000000000000000000010101 Q
#56
0K
#57
1K
b00000000000000000000000000010110 Q
#58
0K
#59
1K
b00000000000000000000000000010111 Q
#60
0K
#61
1K
b00000000000000000000000000011000 Q
#62
0K
#63
1K
b00000000000000000000000000011001 Q
#64
0K
#65
1K
b00000000000000000000000000011010 Q
#66
0K
#67
1K
b00000000000000000000000000011011 Q
#68
0K
#69
1K
b00000000000000000000000000011100 Q
#70
0K
#71
1K
b00000000000000000000000000011101 Q
#72
0K
#73
1K
b00000000000000000000000000011110 Q
#74
0K
#75
1K
b00000000000000000000000000011111 Q
#76
0K
#77
1K
b00000000000000000000000000100000 Q
#78
0K
#79
1K
b00000000000000000000000000100001 Q
#80
0K
#81
1K
b00000000000000000000000000100010 Q
#82
0K
#83
1K
b00000000000000000000000000100011 Q
#84
0K
#85
1K
b00000000000000000000000000100100 Q
#86
0K
#87
1K
b00000000000000000000000000100101 Q
#88
0K
#89
1K
b00000000000000000000000000100110 Q
#90
0K
#91
1K
b00000000000000000000000000100111 Q
#92
0K
#93
1K
b00000000000000000000000000101000 Q
#94
0K
#95
1K
b00000000000000000000000000101001 Q
#96
0K
#97
1K
b00000000000000000000000000101010 Q
#98
0K
#99
1K
b00000000000000000000000000101011 Q
#100
0K
#101
1K
b00000000000000000000000000101100 Q
#102
0K
#103
1K
b00000000000000000000000000101101 Q
#104
0K
#105
1K
b00000000000000000000000000101110 Q
#106
0K
#107
1K
b00000000000000000000000000101111 Q
#108
0K
#109
1K
b00000000000000000000000000110000 Q
#110
0K
#111
1K
b00000000000000000000000000110001 Q
#112
0K
#113
1K
b00000000000000000000000000110010 Q
#114
0K
#115
1K
b00000000000000000000000000110011 Q
#116
0K
#117
1K
b00000000000000000000000000110100 Q
#118
0K
#119
1K
b00000000000000000000000000110101 Q
#120
0K
#121
1K
b00000000000000000000000000110110 Q
#122
0K
#123
1K
b00000000000000000000000000110111 Q
#124
0K
#125
1K
b00000000000000000000000000111000 Q
#126
0K
#127
1K
b00000000000000000000000000111001 Q
#128
0K
#129
1K
b00000000000000000000000000111010 Q
#130
0K
#131
1K
b00000000000000000000000000111011 Q
#132
0K
#133
1K
b00000000000000000000000000111100 Q
#134
0K
#135
1K
b00000000000000000000000000111101 Q
#136
0K
#137
1K
b00000000000000000000000000111110 Q
#138
0K
#139
1K
b00000000000000000000000000111111 Q
#140
0K
#141
1K
b00000000000000000000000001000000 Q
#142
0K
#143
1K
b00000000000000000000000001000001 Q
#144
0K
#145
1K
b00000000000000000000000001000010 Q
#146
0K
#147
1K
b00000000000000000000000001000011 Q
#148
0K
#149
1K
b00000000000000000000000001000100 Q
#150
0K
#151
1K
b00000000000000000000000001000101 Q
#152
0K
#153
1K
b00000000000000000000000001000110 Q
#154
0K
#155
1K
b00000000000000000000000001000111 Q
#156
0K
#157
1K
b00000000000000000000000001001000 Q
#158
0K
#159
1K
b00000000000000000000000001001001 Q
#160
0K
#161
1K
b00000000000000000000000001001010 Q
#162
0K
#163
1K
b00000000000000000000000001001011 Q
#164
0K
#165
1K
b00000000000000000000000001001100 Q
#166
0K
#167
1K
b00000000000000000000000001001101 Q
#168
0K
#169
1K
b00000000000000000000000001001110 Q
#170
0K
#171
1K
b00000000000000000000000001001111 Q
#172
0K
#173
1K
b00000000000000000000000001010000 Q
#174
0K
#175
1K
b00000000000000000000000001010001 Q
#176
0K
#177
1K
b00000000000000000000000001010010 Q
#178
0K
#179
1K
b00000000000000000000000001010011 Q
#180
0K
#181
1K
b00000000000000000000000001010100 Q
#182
0K
#183
1K
b00000000000000000000000001010101 Q
#184
0K
#185
1K
b00000000000000000000000001010110 Q
#186
0K
#187
1K
b00000000000000000000000001010111 Q
#188
0K
#189
1K
b00000000000000000000000001011000 Q
#190
0K
#191
1K
b00000000000000000000000001011001 Q
#192
0K
#193
1K
b00000000000000000000000001011010 Q
#194
0K
#195
1K
b00000000000000000000000001011011 Q
#196
0K
#197
1K
b00000000000000000000000001011100 Q
#198
0K
#199
1K
b00000000000000000000000001011101 Q
#200
0K
#201
1K
b00000000000000000000000001011110 Q
#202
0K
#203
1K
b00000000000000000000000001011111 Q
#204
0K
#205
1K
b00000000000000000000000001100000 Q
#206
0K
#207
1K
b00000000000000000000000001100001 Q
#208
0K
#209
1K
b00000000000000000000000001100010 Q
#210
0K
#211
1K
b00000000000000000000000001100011 Q
#212
0K
#213
1K
b00000000000000000000000001100100 Q
#214
0K
#215
1K
b00000000000000000000000001100101 Q
#216
0K
#217
1K
b00000000000000000000000001100110 Q
#218
0K
#219
1K
b00000000000000000000000001100111 Q
#220
0K
#221
1K
b00000000000000000000000001101000 Q
#222
0K
#223
1K
b00000000000000000000000001101001 Q
#224
0K
#225
1K
b00000000000000000000000001101010 Q
#226
0K
#227
1K
b00000000000000000000000001101011 Q
#228
0K
#229
1K
b00000000000000000000000001101100 Q
#230
0K
#231
1K
b00000000000000000000000001101101 Q
#232
0K
#233
1K
b00000000000000000000000001101110 Q
#234
0K
#235
1K
b00000000000000000000000001101111 Q
#236
0K
#237
1K
b00000000000000000000000001110000 Q
#238
0K
#239
1K
b00000000000000000000000001110001 Q
#240
0K
#241
1K
b00000000000000000000000001110010 Q
#242
0K
#243
1K
b00000000000000000000000001110011 Q
#244
0K
#245
1K
b00000000000000000000000001110100 Q
#246
0K
#247
1K
b00000000000000000000000001110101 Q
#248
0K
#249
1K
b00000000000000000000000001110110 Q
#250
0K
#251
1K
b00000000000000000000000001110111 Q
#252
0K
#253
1K
b00000000000000000000000001111000 Q
#254
0K
#255
1K
b00000000000000000000000001111001 Q
#256
0K
#257
1K
b00000000000000000000000001111010 Q
#258
0K
#259
1K
b00000000000000000000000001111011 Q
#260
0K
#261
1K
b00000000000000000000000001111100 Q
#262
0K
#263
1K
b00000000000000000000000001111101 Q
#264
0K
#265
1K
b00000000000000000000000001111110 Q
#266
0K
#267
1K
b00000000000000000000000001111111 Q
#268
0K
#269
1K
b00000000000000000000000010000000 Q
#270
0K
#271
1K
b00000000000000000000000010000001 Q
#272
0K
#273
1K
b00000000000000000000000010000010 Q
#274
0K
#275
1K
b00000000000000000000000010000011 Q
#276
0K
#277
1K
b00000000000000000000000010000100 Q
#278
0K
#279
1K
b00000000000000000000000010000101 Q
#280
0K
#281
1K
b00000000000000000000000010000110 Q
#282
0K
#283
1K
b00000000000000000000000010000111 Q
#284
0K
#285
1K
b00000000000000000000000010001000 Q
