project/m2/tb/axi_wave.vcd
$version Generated by VerilatedVcd $end
$timescale 1ps $end
 $scope module TOP $end
  $var wire 1 ( clk $end
  $var wire 1 ) rst_n $end
  $var wire 1 * awvalid $end
  $var wire 1 + awready $end
  $var wire 32 , awaddr [31:0] $end
  $var wire 1 - wvalid $end
  $var wire 1 . wready $end
  $var wire 32 / wdata [31:0] $end
  $var wire 4 0 wstrb [3:0] $end
  $var wire 1 1 bvalid $end
  $var wire 1 2 bready $end
  $var wire 2 3 bresp [1:0] $end
  $var wire 1 4 arvalid $end
  $var wire 1 5 arready $end
  $var wire 32 6 araddr [31:0] $end
  $var wire 1 7 rvalid $end
  $var wire 1 8 rready $end
  $var wire 32 9 rdata [31:0] $end
  $var wire 2 : rresp [1:0] $end
  $var wire 1 ; start $end
  $var wire 1 < done $end
  $scope module axi4_lite_ctrl $end
   $var wire 1 ( clk $end
   $var wire 1 ) rst_n $end
   $var wire 1 * awvalid $end
   $var wire 1 + awready $end
   $var wire 32 , awaddr [31:0] $end
   $var wire 1 - wvalid $end
   $var wire 1 . wready $end
   $var wire 32 / wdata [31:0] $end
   $var wire 4 0 wstrb [3:0] $end
   $var wire 1 1 bvalid $end
   $var wire 1 2 bready $end
   $var wire 2 3 bresp [1:0] $end
   $var wire 1 4 arvalid $end
   $var wire 1 5 arready $end
   $var wire 32 6 araddr [31:0] $end
   $var wire 1 7 rvalid $end
   $var wire 1 8 rready $end
   $var wire 32 9 rdata [31:0] $end
   $var wire 2 : rresp [1:0] $end
   $var wire 1 ; start $end
   $var wire 1 < done $end
   $var wire 32 # ctrl_reg [31:0] $end
   $var wire 32 = status_reg [31:0] $end
   $var wire 2 $ wstate [1:0] $end
   $var wire 32 % waddr_lat [31:0] $end
   $var wire 2 & rstate [1:0] $end
   $var wire 32 ' raddr_lat [31:0] $end
  $upscope $end
 $upscope $end
$enddefinitions $end


#0
b00000000000000000000000000000000 #
b00 $
b00000000000000000000000000000000 %
b00 &
b00000000000000000000000000000000 '
0(
0)
0*
0+
b00000000000000000000000000000000 ,
0-
0.
b00000000000000000000000000000000 /
b1111 0
01
02
b00 3
04
05
b00000000000000000000000000000000 6
07
08
b00000000000000000000000000000000 9
b00 :
0;
0<
b00000000000000000000000000000000 =
#1
1(
#2
0(
#3
1(
#4
0(
#5
1(
#6
0(
1)
#7
1(
#8
0(
1*
#9
b10 $
1(
1+
#10
0(
#11
1(
0+
#12
0(
0*
1-
b00000000000000000000000000000001 /
#13
b00000000000000000000000000000001 #
b11 $
1(
1.
1;
#14
0(
#15
b00000000000000000000000000000000 #
1(
0.
11
0;
#16
0(
0-
12
#17
b00 $
1(
01
#18
0(
02
#19
1(
#20
0(
#21
1(
#22
0(
#23
1(
#24
0(
#25
1(
#26
0(
#27
1(
#28
0(
#29
1(
#30
0(
#31
1(
#32
0(
#33
1(
#34
0(
#35
1(
#36
0(
#37
1(
#38
0(
1<
b00000000000000000000000000000001 =
#39
1(
#40
0(
14
b00000000000000000000000000000100 6
#41
b10 &
b00000000000000000000000000000100 '
1(
15
#42
0(
#43
1(
05
17
b00000000000000000000000000000001 9
#44
0(
04
18
#45
b00 &
1(
07
#46
0(
08
