project/m2/tb/pe_wave.vcd
$version Generated by VerilatedVcd $end
$timescale 1ps $end
 $scope module TOP $end
  $var wire 1 d clk $end
  $var wire 1 e rst_n $end
  $var wire 32 f a_in [31:0] $end
  $var wire 32 g b_in [31:0] $end
  $var wire 1 h valid_in $end
  $var wire 32 i a_out [31:0] $end
  $var wire 32 j b_out [31:0] $end
  $var wire 1 k valid_out $end
  $var wire 32 l result [31:0] $end
  $var wire 1 m result_valid $end
  $scope module pe $end
   $var wire 32 t D_HEAD [31:0] $end
   $var wire 1 d clk $end
   $var wire 1 e rst_n $end
   $var wire 32 f a_in [31:0] $end
   $var wire 32 g b_in [31:0] $end
   $var wire 1 h valid_in $end
   $var wire 32 i a_out [31:0] $end
   $var wire 32 j b_out [31:0] $end
   $var wire 1 k valid_out $end
   $var wire 32 l result [31:0] $end
   $var wire 1 m result_valid $end
   $var wire 32 ) product [31:0] $end
   $var wire 1 * product_valid $end
   $var wire 32 + prod_buf[0] [31:0] $end
   $var wire 32 , prod_buf[1] [31:0] $end
   $var wire 32 - prod_buf[2] [31:0] $end
   $var wire 32 . prod_buf[3] [31:0] $end
   $var wire 32 / prod_count [31:0] $end
   $var wire 1 0 all_collected $end
   $var wire 2 1 acc_state [1:0] $end
   $var wire 32 2 add_idx [31:0] $end
   $var wire 32 3 acc [31:0] $end
   $var wire 1 4 acc_valid_in $end
   $var wire 32 5 add_result [31:0] $end
   $var wire 1 6 add_valid $end
   $var wire 1 7 waiting $end
   $scope module u_add $end
    $var wire 1 d clk $end
    $var wire 1 e rst_n $end
    $var wire 32 3 a [31:0] $end
    $var wire 32 8 b [31:0] $end
    $var wire 1 4 valid_in $end
    $var wire 32 5 result [31:0] $end
    $var wire 1 6 valid_out $end
    $var wire 1 9 sign_a $end
    $var wire 1 : sign_b $end
    $var wire 8 ; exp_a [7:0] $end
    $var wire 8 < exp_b [7:0] $end
    $var wire 24 = sig_a [23:0] $end
    $var wire 24 > sig_b [23:0] $end
    $var wire 1 ? nan_a $end
    $var wire 1 @ nan_b $end
    $var wire 1 A inf_a $end
    $var wire 1 B inf_b $end
    $var wire 1 C zero_a $end
    $var wire 1 D zero_b $end
    $var wire 1 E sign_l $end
    $var wire 1 F sign_s $end
    $var wire 8 G exp_l [7:0] $end
    $var wire 8 H exp_diff [7:0] $end
    $var wire 25 I sig_l_ext [24:0] $end
    $var wire 25 J sig_s_ext [24:0] $end
    $var wire 25 K sig_s_aligned [24:0] $end
    $var wire 25 L sum [24:0] $end
    $var wire 1 M result_sign $end
    $var wire 8 N result_exp [7:0] $end
    $var wire 23 O result_man [22:0] $end
    $var wire 5 P lz [4:0] $end
    $var wire 25 Q norm_sig [24:0] $end
    $var wire 32 R add_result_comb [31:0] $end
   $upscope $end
   $scope module u_mul $end
    $var wire 1 d clk $end
    $var wire 1 e rst_n $end
    $var wire 32 f a [31:0] $end
    $var wire 32 g b [31:0] $end
    $var wire 1 h valid_in $end
    $var wire 32 ) result [31:0] $end
    $var wire 1 * valid_out $end
    $var wire 1 n sign_a $end
    $var wire 1 o sign_b $end
    $var wire 8 p exp_a [7:0] $end
    $var wire 8 q exp_b [7:0] $end
    $var wire 23 r man_a [22:0] $end
    $var wire 23 s man_b [22:0] $end
    $var wire 1 # zero_a $end
    $var wire 1 $ zero_b $end
    $var wire 1 % inf_a $end
    $var wire 1 & inf_b $end
    $var wire 1 ' nan_a $end
    $var wire 1 ( nan_b $end
    $var wire 1 S s1_sign $end
    $var wire 10 T s1_exp [9:0] $end
    $var wire 24 U s1_sig_a [23:0] $end
    $var wire 24 V s1_sig_b [23:0] $end
    $var wire 1 W s1_is_zero $end
    $var wire 1 X s1_is_inf $end
    $var wire 1 Y s1_is_nan $end
    $var wire 1 Z s1_valid $end
    $var wire 1 [ s2_sign $end
    $var wire 10 \ s2_exp [9:0] $end
    $var wire 48 ] s2_product [47:0] $end
    $var wire 1 _ s2_is_zero $end
    $var wire 1 ` s2_is_inf $end
    $var wire 1 a s2_is_nan $end
    $var wire 1 b s2_valid $end
    $var wire 32 ) s3_result [31:0] $end
    $var wire 1 * s3_valid $end
   $upscope $end
   $scope module unnamedblk1 $end
    $var wire 32 c i [31:0] $end
   $upscope $end
  $upscope $end
 $upscope $end
$enddefinitions $end


#0
1#
1$
0%
0&
0'
0(
b00000000000000000000000000000000 )
0*
b00000000000000000000000000000000 +
b00000000000000000000000000000000 ,
b00000000000000000000000000000000 -
b00000000000000000000000000000000 .
b00000000000000000000000000000000 /
00
b00 1
b00000000000000000000000000000000 2
b00000000000000000000000000000000 3
04
b00000000000000000000000000000000 5
06
07
b00000000000000000000000000000000 8
09
0:
b00000000 ;
b00000000 <
b000000000000000000000000 =
b000000000000000000000000 >
0?
0@
0A
0B
1C
1D
0E
0F
b00000000 G
b00000000 H
b0000000000000000000000000 I
b0000000000000000000000000 J
b0000000000000000000000000 K
b0000000000000000000000000 L
0M
b00000000 N
b00000000000000000000000 O
b00000 P
b0000000000000000000000000 Q
b00000000000000000000000000000000 R
0S
b0000000000 T
b000000000000000000000000 U
b000000000000000000000000 V
0W
0X
0Y
0Z
0[
b0000000000 \
b000000000000000000000000000000000000000000000000 ]
0_
0`
0a
0b
b00000000000000000000000000000000 c
0d
0e
b00000000000000000000000000000000 f
b00000000000000000000000000000000 g
0h
b00000000000000000000000000000000 i
b00000000000000000000000000000000 j
0k
b00000000000000000000000000000000 l
0m
0n
0o
b00000000 p
b00000000 q
b00000000000000000000000 r
b00000000000000000000000 s
b00000000000000000000000000000100 t
#1
b00000000000000000000000000000100 c
1d
#2
0d
#3
1d
#4
0d
#5
1d
#6
0d
1e
#7
b1110000001 T
b100000000000000000000000 U
b100000000000000000000000 V
1W
1d
#8
0#
0$
0d
b00111111100000000000000000000000 f
b00111111100000000000000000000000 g
1h
b01111111 p
b01111111 q
#9
b0001111111 T
0W
1Z
b1110000001 \
b010000000000000000000000000000000000000000000000 ]
1_
1d
b00111111100000000000000000000000 i
b00111111100000000000000000000000 j
1k
#10
1$
0d
b01000000000000000000000000000000 f
b00000000000000000000000000000000 g
b10000000 p
b00000000 q
#11
b0000000001 T
1W
b0001111111 \
0_
1b
1d
b01000000000000000000000000000000 i
b00000000000000000000000000000000 j
#12
0$
0d
b01000000010000000000000000000000 f
b00111111100000000000000000000000 g
b01111111 q
b10000000000000000000000 r
#13
b00111111100000000000000000000000 )
1*
b0010000000 T
b110000000000000000000000 U
0W
b0000000001 \
1_
1d
b01000000010000000000000000000000 i
b00111111100000000000000000000000 j
#14
1$
0d
b01000000100000000000000000000000 f
b00000000000000000000000000000000 g
b10000001 p
b00000000 q
b00000000000000000000000 r
#15
b00000000000000000000000000000000 )
b00111111100000000000000000000000 +
b00000000000000000000000000000001 /
b00111111100000000000000000000000 8
b01111111 <
b100000000000000000000000 >
0D
b00111111100000000000000000000000 R
b0000000010 T
b100000000000000000000000 U
1W
b0010000000 \
b011000000000000000000000000000000000000000000000 ]
0_
1d
b01000000100000000000000000000000 i
b00000000000000000000000000000000 j
#16
1#
0d
b00000000000000000000000000000000 f
0h
b00000000 p
#17
b01000000010000000000000000000000 )
b00000000000000000000000000000010 /
b00111111100000000000000000000000 5
b1110000001 T
0Z
b0000000010 \
b010000000000000000000000000000000000000000000000 ]
1_
1d
b00000000000000000000000000000000 i
0k
#18
0d
#19
b00000000000000000000000000000000 )
b01000000010000000000000000000000 -
b00000000000000000000000000000011 /
b1110000001 \
0b
1d
#20
0d
#21
0*
b00000000000000000000000000000100 /
10
1d
#22
0d
#23
b01 1
14
1d
#24
0d
#25
04
16
17
1d
#26
0d
#27
b00000000000000000000000000000001 2
b00111111100000000000000000000000 3
14
06
07
b00000000000000000000000000000000 8
b01111111 ;
b00000000 <
b100000000000000000000000 =
b000000000000000000000000 >
0C
1D
1d
b00111111100000000000000000000000 l
#28
0d
#29
04
16
17
1d
#30
0d
#31
b00000000000000000000000000000010 2
14
06
07
b01000000010000000000000000000000 8
b10000000 <
b110000000000000000000000 >
0D
b10000000 G
b00000001 H
b0110000000000000000000000 I
b0100000000000000000000000 J
b0010000000000000000000000 K
b1000000000000000000000000 L
b10000001 N
b01000000100000000000000000000000 R
1d
#32
0d
#33
04
b01000000100000000000000000000000 5
16
17
1d
#34
0d
#35
b00000000000000000000000000000011 2
b01000000100000000000000000000000 3
14
06
07
b00000000000000000000000000000000 8
b10000001 ;
b00000000 <
b000000000000000000000000 >
1D
b00000000 G
b00000000 H
b0000000000000000000000000 I
b0000000000000000000000000 J
b0000000000000000000000000 K
b0000000000000000000000000 L
b00000000 N
1d
b01000000100000000000000000000000 l
#36
0d
#37
04
16
17
1d
#38
0d
#39
b10 1
06
07
1d
1m
#40
0d
#41
1d
#42
0d
#43
1d
#44
0d
#45
1d
#46
0d
#47
1d
#48
0d
#49
1d
#50
0d
#51
1d
#52
0d
#53
1d
#54
0d
#55
1d
#56
0d
#57
1d
#58
0d
#59
1d
#60
0d
#61
1d
#62
0d
#63
1d
#64
0d
#65
1d
#66
0d
0e
#67
b00000000000000000000000000000000 +
b00000000000000000000000000000000 -
b00000000000000000000000000000000 /
00
b00 1
b00000000000000000000000000000000 2
b00000000000000000000000000000000 3
b00000000000000000000000000000000 5
b00000000 ;
b000000000000000000000000 =
1C
b00000000000000000000000000000000 R
b0000000000 T
b000000000000000000000000 U
b000000000000000000000000 V
0W
b0000000000 \
b000000000000000000000000000000000000000000000000 ]
0_
1d
b00000000000000000000000000000000 l
0m
#68
0d
#69
1d
#70
0d
#71
1d
#72
0d
1e
#73
b1110000001 T
b100000000000000000000000 U
b100000000000000000000000 V
1W
1d
#74
0#
0$
0d
b01000000101000000000000000000000 f
b00111111100000000000000000000000 g
1h
b10000001 p
b01111111 q
b01000000000000000000000 r
#75
b0010000001 T
b101000000000000000000000 U
0W
1Z
b1110000001 \
b010000000000000000000000000000000000000000000000 ]
1_
1d
b01000000101000000000000000000000 i
b00111111100000000000000000000000 j
1k
#76
1$
0d
b01000000110000000000000000000000 f
b00000000000000000000000000000000 g
b00000000 q
b10000000000000000000000 r
#77
b0000000010 T
b110000000000000000000000 U
1W
b0010000001 \
b010100000000000000000000000000000000000000000000 ]
0_
1b
1d
b01000000110000000000000000000000 i
b00000000000000000000000000000000 j
#78
0$
0d
b01000000111000000000000000000000 f
b00111111100000000000000000000000 g
b01111111 q
b11000000000000000000000 r
#79
b01000000101000000000000000000000 )
1*
b0010000001 T
b111000000000000000000000 U
0W
b0000000010 \
b011000000000000000000000000000000000000000000000 ]
1_
1d
b01000000111000000000000000000000 i
b00111111100000000000000000000000 j
#80
1$
0d
b01000001000000000000000000000000 f
b00000000000000000000000000000000 g
b10000010 p
b00000000 q
b00000000000000000000000 r
#81
b00000000000000000000000000000000 )
b01000000101000000000000000000000 +
b00000000000000000000000000000001 /
b01000000101000000000000000000000 8
b10000001 <
b101000000000000000000000 >
0D
b01000000101000000000000000000000 R
b0000000011 T
b100000000000000000000000 U
1W
b0010000001 \
b011100000000000000000000000000000000000000000000 ]
0_
1d
b01000001000000000000000000000000 i
b00000000000000000000000000000000 j
#82
1#
0d
b00000000000000000000000000000000 f
0h
b00000000 p
#83
b01000000111000000000000000000000 )
b00000000000000000000000000000010 /
b01000000101000000000000000000000 5
b1110000001 T
0Z
b0000000011 \
b010000000000000000000000000000000000000000000000 ]
1_
1d
b00000000000000000000000000000000 i
0k
#84
0d
#85
b00000000000000000000000000000000 )
b01000000111000000000000000000000 -
b00000000000000000000000000000011 /
b1110000001 \
0b
1d
#86
0d
#87
0*
b00000000000000000000000000000100 /
10
1d
#88
0d
#89
b01 1
14
1d
#90
0d
#91
04
16
17
1d
#92
0d
#93
b00000000000000000000000000000001 2
b01000000101000000000000000000000 3
14
06
07
b00000000000000000000000000000000 8
b10000001 ;
b00000000 <
b101000000000000000000000 =
b000000000000000000000000 >
0C
1D
1d
b01000000101000000000000000000000 l
#94
0d
#95
04
16
17
1d
#96
0d
#97
b00000000000000000000000000000010 2
14
06
07
b01000000111000000000000000000000 8
b10000001 <
b111000000000000000000000 >
0D
b10000001 G
b0101000000000000000000000 I
b0111000000000000000000000 J
b0111000000000000000000000 K
b1100000000000000000000000 L
b10000010 N
b10000000000000000000000 O
b01000001010000000000000000000000 R
1d
#98
0d
#99
04
b01000001010000000000000000000000 5
16
17
1d
#100
0d
#101
b00000000000000000000000000000011 2
b01000001010000000000000000000000 3
14
06
07
b00000000000000000000000000000000 8
b10000010 ;
b00000000 <
b110000000000000000000000 =
b000000000000000000000000 >
1D
b00000000 G
b0000000000000000000000000 I
b0000000000000000000000000 J
b0000000000000000000000000 K
b0000000000000000000000000 L
b00000000 N
b00000000000000000000000 O
1d
b01000001010000000000000000000000 l
#102
0d
#103
04
16
17
1d
#104
0d
#105
b10 1
06
07
1d
1m
