project/m2/tb/stream_wave.vcd
$version Generated by VerilatedVcd $end
$timescale 1ps $end
 $scope module TOP $end
  $var wire 1 J clk $end
  $var wire 1 K rst_n $end
  $var wire 1 L s_tvalid $end
  $var wire 1 M s_tready $end
  $var wire 64 N s_tdata [63:0] $end
  $var wire 1 P s_tlast $end
  $var wire 1 Q m_tvalid $end
  $var wire 1 R m_tready $end
  $var wire 64 S m_tdata [63:0] $end
  $var wire 1 U m_tlast $end
  $var wire 1 V start $end
  $var wire 1 W done $end
  $scope module axi4_stream $end
   $var wire 32 X SIZE [31:0] $end
   $var wire 32 X D_HEAD [31:0] $end
   $var wire 1 J clk $end
   $var wire 1 K rst_n $end
   $var wire 1 L s_tvalid $end
   $var wire 1 M s_tready $end
   $var wire 64 N s_tdata [63:0] $end
   $var wire 1 P s_tlast $end
   $var wire 1 Q m_tvalid $end
   $var wire 1 R m_tready $end
   $var wire 64 S m_tdata [63:0] $end
   $var wire 1 U m_tlast $end
   $var wire 1 V start $end
   $var wire 1 W done $end
   $var wire 3 # state [2:0] $end
   $var wire 32 $ q_buf[0] [31:0] $end
   $var wire 32 % q_buf[1] [31:0] $end
   $var wire 32 & q_buf[2] [31:0] $end
   $var wire 32 ' q_buf[3] [31:0] $end
   $var wire 32 ( k_buf[0] [31:0] $end
   $var wire 32 ) k_buf[1] [31:0] $end
   $var wire 32 * k_buf[2] [31:0] $end
   $var wire 32 + k_buf[3] [31:0] $end
   $var wire 32 , recv_count [31:0] $end
   $var wire 32 - a_out[0] [31:0] $end
   $var wire 32 . a_out[1] [31:0] $end
   $var wire 32 / a_out[2] [31:0] $end
   $var wire 32 0 a_out[3] [31:0] $end
   $var wire 32 1 b_out[0] [31:0] $end
   $var wire 32 2 b_out[1] [31:0] $end
   $var wire 32 3 b_out[2] [31:0] $end
   $var wire 32 4 b_out[3] [31:0] $end
   $var wire 1 5 core_valid $end
   $var wire 32 6 score_buf[0] [31:0] $end
   $var wire 32 7 score_buf[1] [31:0] $end
   $var wire 32 8 score_buf[2] [31:0] $end
   $var wire 32 9 score_buf[3] [31:0] $end
   $var wire 32 : score_buf[4] [31:0] $end
   $var wire 32 ; score_buf[5] [31:0] $end
   $var wire 32 < score_buf[6] [31:0] $end
   $var wire 32 = score_buf[7] [31:0] $end
   $var wire 32 > score_buf[8] [31:0] $end
   $var wire 32 ? score_buf[9] [31:0] $end
   $var wire 32 @ score_buf[10] [31:0] $end
   $var wire 32 A score_buf[11] [31:0] $end
   $var wire 32 B score_buf[12] [31:0] $end
   $var wire 32 C score_buf[13] [31:0] $end
   $var wire 32 D score_buf[14] [31:0] $end
   $var wire 32 E score_buf[15] [31:0] $end
   $var wire 32 F send_count [31:0] $end
   $var wire 32 Y total_out [31:0] $end
   $scope module unnamedblk1 $end
    $var wire 32 G i [31:0] $end
   $upscope $end
   $scope module unnamedblk2 $end
    $var wire 32 H i [31:0] $end
   $upscope $end
   $scope module unnamedblk3 $end
    $var wire 32 I i [31:0] $end
   $upscope $end
  $upscope $end
 $upscope $end
$enddefinitions $end


#0
b000 #
b00000000000000000000000000000000 $
b00000000000000000000000000000000 %
b00000000000000000000000000000000 &
b00000000000000000000000000000000 '
b00000000000000000000000000000000 (
b00000000000000000000000000000000 )
b00000000000000000000000000000000 *
b00000000000000000000000000000000 +
b00000000000000000000000000000000 ,
b00000000000000000000000000000000 -
b00000000000000000000000000000000 .
b00000000000000000000000000000000 /
b00000000000000000000000000000000 0
b00000000000000000000000000000000 1
b00000000000000000000000000000000 2
b00000000000000000000000000000000 3
b00000000000000000000000000000000 4
05
b00000000000000000000000000000000 6
b00000000000000000000000000000000 7
b00000000000000000000000000000000 8
b00000000000000000000000000000000 9
b00000000000000000000000000000000 :
b00000000000000000000000000000000 ;
b00000000000000000000000000000000 <
b00000000000000000000000000000000 =
b00000000000000000000000000000000 >
b00000000000000000000000000000000 ?
b00000000000000000000000000000000 @
b00000000000000000000000000000000 A
b00000000000000000000000000000000 B
b00000000000000000000000000000000 C
b00000000000000000000000000000000 D
b00000000000000000000000000000000 E
b00000000000000000000000000000000 F
b00000000000000000000000000000000 G
b00000000000000000000000000000000 H
b00000000000000000000000000000000 I
0J
0K
0L
0M
b0000000000000000000000000000000000000000000000000000000000000000 N
0P
0Q
0R
b0000000000000000000000000000000000000000000000000000000000000000 S
0U
0V
0W
b00000000000000000000000000000100 X
b00000000000000000000000000010000 Y
#1
b00000000000000000000000000000100 G
b00000000000000000000000000010000 H
1J
#2
0J
#3
1J
#4
0J
#5
1J
#6
0J
1K
#7
1J
#8
0J
1V
#9
b001 #
1J
1M
#10
0J
0V
#11
1J
#12
0J
1L
b0011111110000000000000000000000000111111100000000000000000000000 N
#13
b00111111100000000000000000000000 $
b00111111100000000000000000000000 (
b00000000000000000000000000000001 ,
b00111111100000000000000000000000 -
b00111111100000000000000000000000 1
1J
#14
0J
b0100000010100000000000000000000000000000000000000000000000000000 N
#15
b01000000101000000000000000000000 %
b00000000000000000000000000000010 ,
b01000000101000000000000000000000 .
1J
#16
0J
b0011111110000000000000000000000000111111100000000000000000000000 N
#17
b00111111100000000000000000000000 &
b00111111100000000000000000000000 *
b00000000000000000000000000000011 ,
b00111111100000000000000000000000 /
b00111111100000000000000000000000 3
1J
#18
0J
b0100000000000000000000000000000000000000000000000000000000000000 N
1P
#19
b010 #
b01000000000000000000000000000000 '
b00000000000000000000000000000000 ,
b01000000000000000000000000000000 0
15
1J
0M
#20
0J
0L
0P
#21
b00000000000000000000000000000001 ,
05
1J
#22
0J
#23
b00000000000000000000000000000010 ,
1J
#24
0J
#25
b00000000000000000000000000000011 ,
1J
#26
0J
#27
b00000000000000000000000000000100 ,
1J
#28
0J
#29
b00000000000000000000000000000101 ,
1J
#30
0J
#31
b011 #
b00000000000000000000000000000110 ,
b00000000000000000000000000000001 6
b00000000000000000000000000000010 7
b00000000000000000000000000000011 8
b00000000000000000000000000000100 9
b00000000000000000000000000000101 :
b00000000000000000000000000000110 ;
b00000000000000000000000000000111 <
b00000000000000000000000000001000 =
b00000000000000000000000000001001 >
b00000000000000000000000000001010 ?
b00000000000000000000000000001011 @
b00000000000000000000000000001100 A
b00000000000000000000000000001101 B
b00000000000000000000000000001110 C
b00000000000000000000000000001111 D
b00000000000000000000000000010000 E
b00000000000000000000000000010000 I
1J
1Q
b0000000000000000000000000000000100000000000000000000000000000000 S
#32
0J
1R
#33
b00000000000000000000000000000001 F
1J
b0000000000000000000000000000001000000000000000000000000000000000 S
#34
0J
#35
b00000000000000000000000000000010 F
1J
b0000000000000000000000000000001100000000000000000000000000000000 S
#36
0J
#37
b00000000000000000000000000000011 F
1J
b0000000000000000000000000000010000000000000000000000000000000000 S
#38
0J
#39
b00000000000000000000000000000100 F
1J
b0000000000000000000000000000010100000000000000000000000000000000 S
#40
0J
#41
b00000000000000000000000000000101 F
1J
b0000000000000000000000000000011000000000000000000000000000000000 S
#42
0J
#43
b00000000000000000000000000000110 F
1J
b0000000000000000000000000000011100000000000000000000000000000000 S
#44
0J
#45
b00000000000000000000000000000111 F
1J
b0000000000000000000000000000100000000000000000000000000000000000 S
#46
0J
#47
b00000000000000000000000000001000 F
1J
b0000000000000000000000000000100100000000000000000000000000000000 S
#48
0J
#49
b00000000000000000000000000001001 F
1J
b0000000000000000000000000000101000000000000000000000000000000000 S
#50
0J
#51
b00000000000000000000000000001010 F
1J
b0000000000000000000000000000101100000000000000000000000000000000 S
#52
0J
#53
b00000000000000000000000000001011 F
1J
b0000000000000000000000000000110000000000000000000000000000000000 S
#54
0J
#55
b00000000000000000000000000001100 F
1J
b0000000000000000000000000000110100000000000000000000000000000000 S
#56
0J
#57
b00000000000000000000000000001101 F
1J
b0000000000000000000000000000111000000000000000000000000000000000 S
#58
0J
#59
b00000000000000000000000000001110 F
1J
b0000000000000000000000000000111100000000000000000000000000000000 S
#60
0J
#61
b00000000000000000000000000001111 F
1J
b0000000000000000000000000001000000000000000000000000000000000000 S
1U
#62
0J
#63
b100 #
1J
0Q
b0000000000000000000000000000000000000000000000000000000000000000 S
0U
1W
